%!PS-Adobe-3.0 EPSF-3.0
%%Creator: (MATLAB, The Mathworks, Inc. Version 8.4.0.150421 \(R2014b\). Operating System: Linux)
%%Title: /home/ewestman/courses/vehicle-drift/results/results-drift.eps
%%CreationDate: 2015-05-06T12:21:38
%%Pages: (atend)
%%BoundingBox: 0 0 750 300
%%LanguageLevel: 2
%%EndComments
%%BeginProlog
%%BeginResource: procset (Apache XML Graphics Std ProcSet) 1.2 0
%%Version: 1.2 0
%%Copyright: (Copyright 2001-2003,2010 The Apache Software Foundation. License terms: http://www.apache.org/licenses/LICENSE-2.0)
/bd{bind def}bind def
/ld{load def}bd
/GR/grestore ld
/M/moveto ld
/LJ/setlinejoin ld
/C/curveto ld
/f/fill ld
/LW/setlinewidth ld
/GC/setgray ld
/t/show ld
/N/newpath ld
/CT/concat ld
/cp/closepath ld
/S/stroke ld
/L/lineto ld
/CC/setcmykcolor ld
/A/ashow ld
/GS/gsave ld
/RC/setrgbcolor ld
/RM/rmoveto ld
/ML/setmiterlimit ld
/re {4 2 roll M
1 index 0 rlineto
0 exch rlineto
neg 0 rlineto
cp } bd
/_ctm matrix def
/_tm matrix def
/BT { _ctm currentmatrix pop matrix _tm copy pop 0 0 moveto } bd
/ET { _ctm setmatrix } bd
/iTm { _ctm setmatrix _tm concat } bd
/Tm { _tm astore pop iTm 0 0 moveto } bd
/ux 0.0 def
/uy 0.0 def
/F {
  /Tp exch def
  /Tf exch def
  Tf findfont Tp scalefont setfont
  /cf Tf def  /cs Tp def
} bd
/ULS {currentpoint /uy exch def /ux exch def} bd
/ULE {
  /Tcx currentpoint pop def
  gsave
  newpath
  cf findfont cs scalefont dup
  /FontMatrix get 0 get /Ts exch def /FontInfo get dup
  /UnderlinePosition get Ts mul /To exch def
  /UnderlineThickness get Ts mul /Tt exch def
  ux uy To add moveto  Tcx uy To add lineto
  Tt setlinewidth stroke
  grestore
} bd
/OLE {
  /Tcx currentpoint pop def
  gsave
  newpath
  cf findfont cs scalefont dup
  /FontMatrix get 0 get /Ts exch def /FontInfo get dup
  /UnderlinePosition get Ts mul /To exch def
  /UnderlineThickness get Ts mul /Tt exch def
  ux uy To add cs add moveto Tcx uy To add cs add lineto
  Tt setlinewidth stroke
  grestore
} bd
/SOE {
  /Tcx currentpoint pop def
  gsave
  newpath
  cf findfont cs scalefont dup
  /FontMatrix get 0 get /Ts exch def /FontInfo get dup
  /UnderlinePosition get Ts mul /To exch def
  /UnderlineThickness get Ts mul /Tt exch def
  ux uy To add cs 10 mul 26 idiv add moveto Tcx uy To add cs 10 mul 26 idiv add lineto
  Tt setlinewidth stroke
  grestore
} bd
/QT {
/Y22 exch store
/X22 exch store
/Y21 exch store
/X21 exch store
currentpoint
/Y21 load 2 mul add 3 div exch
/X21 load 2 mul add 3 div exch
/X21 load 2 mul /X22 load add 3 div
/Y21 load 2 mul /Y22 load add 3 div
/X22 load /Y22 load curveto
} bd
/SSPD {
dup length /d exch dict def
{
/v exch def
/k exch def
currentpagedevice k known {
/cpdv currentpagedevice k get def
v cpdv ne {
/upd false def
/nullv v type /nulltype eq def
/nullcpdv cpdv type /nulltype eq def
nullv nullcpdv or
{
/upd true def
} {
/sametype v type cpdv type eq def
sametype {
v type /arraytype eq {
/vlen v length def
/cpdvlen cpdv length def
vlen cpdvlen eq {
0 1 vlen 1 sub {
/i exch def
/obj v i get def
/cpdobj cpdv i get def
obj cpdobj ne {
/upd true def
exit
} if
} for
} {
/upd true def
} ifelse
} {
v type /dicttype eq {
v {
/dv exch def
/dk exch def
/cpddv cpdv dk get def
dv cpddv ne {
/upd true def
exit
} if
} forall
} {
/upd true def
} ifelse
} ifelse
} if
} ifelse
upd true eq {
d k v put
} if
} if
} if
} forall
d length 0 gt {
d setpagedevice
} if
} bd
%%EndResource
%%BeginResource: procset (Apache XML Graphics EPS ProcSet) 1.0 0
%%Version: 1.0 0
%%Copyright: (Copyright 2002-2003 The Apache Software Foundation. License terms: http://www.apache.org/licenses/LICENSE-2.0)
/BeginEPSF { %def
/b4_Inc_state save def         % Save state for cleanup
/dict_count countdictstack def % Count objects on dict stack
/op_count count 1 sub def      % Count objects on operand stack
userdict begin                 % Push userdict on dict stack
/showpage { } def              % Redefine showpage, { } = null proc
0 setgray 0 setlinecap         % Prepare graphics state
1 setlinewidth 0 setlinejoin
10 setmiterlimit [ ] 0 setdash newpath
/languagelevel where           % If level not equal to 1 then
{pop languagelevel             % set strokeadjust and
1 ne                           % overprint to their defaults.
{false setstrokeadjust false setoverprint
} if
} if
} bd
/EndEPSF { %def
count op_count sub {pop} repeat            % Clean up stacks
countdictstack dict_count sub {end} repeat
b4_Inc_state restore
} bd
%%EndResource
%FOPBeginFontDict
%%IncludeResource: font Courier-Bold
%%IncludeResource: font Helvetica
%%IncludeResource: font Courier-BoldOblique
%%IncludeResource: font Courier-Oblique
%%IncludeResource: font Times-Roman
%%IncludeResource: font Helvetica-BoldOblique
%%IncludeResource: font Helvetica-Bold
%%IncludeResource: font Helvetica-Oblique
%%IncludeResource: font Times-BoldItalic
%%IncludeResource: font Courier
%%IncludeResource: font Times-Italic
%%IncludeResource: font Times-Bold
%%IncludeResource: font Symbol
%%IncludeResource: font ZapfDingbats
%FOPEndFontDict
%%BeginResource: encoding WinAnsiEncoding
/WinAnsiEncoding [
/.notdef /.notdef /.notdef /.notdef /.notdef
/.notdef /.notdef /.notdef /.notdef /.notdef
/.notdef /.notdef /.notdef /.notdef /.notdef
/.notdef /.notdef /.notdef /.notdef /.notdef
/.notdef /.notdef /.notdef /.notdef /.notdef
/.notdef /.notdef /.notdef /.notdef /.notdef
/.notdef /.notdef /space /exclam /quotedbl
/numbersign /dollar /percent /ampersand /quotesingle
/parenleft /parenright /asterisk /plus /comma
/hyphen /period /slash /zero /one
/two /three /four /five /six
/seven /eight /nine /colon /semicolon
/less /equal /greater /question /at
/A /B /C /D /E
/F /G /H /I /J
/K /L /M /N /O
/P /Q /R /S /T
/U /V /W /X /Y
/Z /bracketleft /backslash /bracketright /asciicircum
/underscore /quoteleft /a /b /c
/d /e /f /g /h
/i /j /k /l /m
/n /o /p /q /r
/s /t /u /v /w
/x /y /z /braceleft /bar
/braceright /asciitilde /bullet /Euro /bullet
/quotesinglbase /florin /quotedblbase /ellipsis /dagger
/daggerdbl /circumflex /perthousand /Scaron /guilsinglleft
/OE /bullet /Zcaron /bullet /bullet
/quoteleft /quoteright /quotedblleft /quotedblright /bullet
/endash /emdash /asciitilde /trademark /scaron
/guilsinglright /oe /bullet /zcaron /Ydieresis
/space /exclamdown /cent /sterling /currency
/yen /brokenbar /section /dieresis /copyright
/ordfeminine /guillemotleft /logicalnot /sfthyphen /registered
/macron /degree /plusminus /twosuperior /threesuperior
/acute /mu /paragraph /middot /cedilla
/onesuperior /ordmasculine /guillemotright /onequarter /onehalf
/threequarters /questiondown /Agrave /Aacute /Acircumflex
/Atilde /Adieresis /Aring /AE /Ccedilla
/Egrave /Eacute /Ecircumflex /Edieresis /Igrave
/Iacute /Icircumflex /Idieresis /Eth /Ntilde
/Ograve /Oacute /Ocircumflex /Otilde /Odieresis
/multiply /Oslash /Ugrave /Uacute /Ucircumflex
/Udieresis /Yacute /Thorn /germandbls /agrave
/aacute /acircumflex /atilde /adieresis /aring
/ae /ccedilla /egrave /eacute /ecircumflex
/edieresis /igrave /iacute /icircumflex /idieresis
/eth /ntilde /ograve /oacute /ocircumflex
/otilde /odieresis /divide /oslash /ugrave
/uacute /ucircumflex /udieresis /yacute /thorn
/ydieresis
] def
%%EndResource
%FOPBeginFontReencode
/Courier-Bold findfont
dup length dict begin
  {1 index /FID ne {def} {pop pop} ifelse} forall
  /Encoding WinAnsiEncoding def
  currentdict
end
/Courier-Bold exch definefont pop
/Helvetica findfont
dup length dict begin
  {1 index /FID ne {def} {pop pop} ifelse} forall
  /Encoding WinAnsiEncoding def
  currentdict
end
/Helvetica exch definefont pop
/Courier-BoldOblique findfont
dup length dict begin
  {1 index /FID ne {def} {pop pop} ifelse} forall
  /Encoding WinAnsiEncoding def
  currentdict
end
/Courier-BoldOblique exch definefont pop
/Courier-Oblique findfont
dup length dict begin
  {1 index /FID ne {def} {pop pop} ifelse} forall
  /Encoding WinAnsiEncoding def
  currentdict
end
/Courier-Oblique exch definefont pop
/Times-Roman findfont
dup length dict begin
  {1 index /FID ne {def} {pop pop} ifelse} forall
  /Encoding WinAnsiEncoding def
  currentdict
end
/Times-Roman exch definefont pop
/Helvetica-BoldOblique findfont
dup length dict begin
  {1 index /FID ne {def} {pop pop} ifelse} forall
  /Encoding WinAnsiEncoding def
  currentdict
end
/Helvetica-BoldOblique exch definefont pop
/Helvetica-Bold findfont
dup length dict begin
  {1 index /FID ne {def} {pop pop} ifelse} forall
  /Encoding WinAnsiEncoding def
  currentdict
end
/Helvetica-Bold exch definefont pop
/Helvetica-Oblique findfont
dup length dict begin
  {1 index /FID ne {def} {pop pop} ifelse} forall
  /Encoding WinAnsiEncoding def
  currentdict
end
/Helvetica-Oblique exch definefont pop
/Times-BoldItalic findfont
dup length dict begin
  {1 index /FID ne {def} {pop pop} ifelse} forall
  /Encoding WinAnsiEncoding def
  currentdict
end
/Times-BoldItalic exch definefont pop
/Courier findfont
dup length dict begin
  {1 index /FID ne {def} {pop pop} ifelse} forall
  /Encoding WinAnsiEncoding def
  currentdict
end
/Courier exch definefont pop
/Times-Italic findfont
dup length dict begin
  {1 index /FID ne {def} {pop pop} ifelse} forall
  /Encoding WinAnsiEncoding def
  currentdict
end
/Times-Italic exch definefont pop
/Times-Bold findfont
dup length dict begin
  {1 index /FID ne {def} {pop pop} ifelse} forall
  /Encoding WinAnsiEncoding def
  currentdict
end
/Times-Bold exch definefont pop
%FOPEndFontReencode
%%EndProlog
%%Page: 1 1
%%PageBoundingBox: 0 0 750 300
%%BeginPageSetup
[1 0 0 -1 0 300] CT
%%EndPageSetup
GS
[0.75 0 0 0.75 0 0] CT
1 GC
N
0 0 1000 400 re
f
GR
GS
[0.75 0 0 0.75 0 0] CT
1 GC
N
0 0 1000 400 re
f
GR
GS
[0.75 0 0 0.75 0 0] CT
1 GC
N
148.5 356 M
474.5 356 L
474.5 30 L
148.5 30 L
cp
f
GR
GS
[0.75 0 0 0.75 233.62498 283.34956] CT
0.149 GC
/Helvetica 15 F
GS
[1 0 0 1 0 0] CT
-20.68 13.923 moveto 
1 -1 scale
(X \(m\)) t 
GR
GR
GS
[0.75 0 0 0.75 0 0] CT
0.149 GC
2 setlinecap
10.0 ML
N
148.5 356 M
474.5 356 L
S
GR
GS
[0.75 0 0 0.75 0 0] CT
0.149 GC
2 setlinecap
10.0 ML
N
148.5 30 M
474.5 30 L
S
GR
GS
[0.75 0 0 0.75 0 0] CT
0.149 GC
2 setlinecap
10.0 ML
N
185.724 356 M
185.724 352.74 L
S
GR
GS
[0.75 0 0 0.75 0 0] CT
0.149 GC
2 setlinecap
10.0 ML
N
185.724 30 M
185.724 33.26 L
S
GR
GS
[0.75 0 0 0.75 0 0] CT
0.149 GC
2 setlinecap
10.0 ML
N
240.057 356 M
240.057 352.74 L
S
GR
GS
[0.75 0 0 0.75 0 0] CT
0.149 GC
2 setlinecap
10.0 ML
N
240.057 30 M
240.057 33.26 L
S
GR
GS
[0.75 0 0 0.75 0 0] CT
0.149 GC
2 setlinecap
10.0 ML
N
294.39 356 M
294.39 352.74 L
S
GR
GS
[0.75 0 0 0.75 0 0] CT
0.149 GC
2 setlinecap
10.0 ML
N
294.39 30 M
294.39 33.26 L
S
GR
GS
[0.75 0 0 0.75 0 0] CT
0.149 GC
2 setlinecap
10.0 ML
N
348.724 356 M
348.724 352.74 L
S
GR
GS
[0.75 0 0 0.75 0 0] CT
0.149 GC
2 setlinecap
10.0 ML
N
348.724 30 M
348.724 33.26 L
S
GR
GS
[0.75 0 0 0.75 0 0] CT
0.149 GC
2 setlinecap
10.0 ML
N
403.057 356 M
403.057 352.74 L
S
GR
GS
[0.75 0 0 0.75 0 0] CT
0.149 GC
2 setlinecap
10.0 ML
N
403.057 30 M
403.057 33.26 L
S
GR
GS
[0.75 0 0 0.75 0 0] CT
0.149 GC
2 setlinecap
10.0 ML
N
457.39 356 M
457.39 352.74 L
S
GR
GS
[0.75 0 0 0.75 0 0] CT
0.149 GC
2 setlinecap
10.0 ML
N
457.39 30 M
457.39 33.26 L
S
GR
GS
[0.75 0 0 0.75 139.29275 270.99998] CT
0.149 GC
/Helvetica 13 F
GS
[1 0 0 1 0 0] CT
-8.271 12.067 moveto 
1 -1 scale
(17) t 
GR
GR
GS
[0.75 0 0 0.75 180.04276 270.99998] CT
0.149 GC
/Helvetica 13 F
GS
[1 0 0 1 0 0] CT
-8.271 12.067 moveto 
1 -1 scale
(18) t 
GR
GR
GS
[0.75 0 0 0.75 220.79276 270.99998] CT
0.149 GC
/Helvetica 13 F
GS
[1 0 0 1 0 0] CT
-8.271 12.067 moveto 
1 -1 scale
(19) t 
GR
GR
GS
[0.75 0 0 0.75 261.54275 270.99998] CT
0.149 GC
/Helvetica 13 F
GS
[1 0 0 1 0 0] CT
-8.271 12.067 moveto 
1 -1 scale
(20) t 
GR
GR
GS
[0.75 0 0 0.75 302.29276 270.99998] CT
0.149 GC
/Helvetica 13 F
GS
[1 0 0 1 0 0] CT
-8.271 12.067 moveto 
1 -1 scale
(21) t 
GR
GR
GS
[0.75 0 0 0.75 343.04276 270.99998] CT
0.149 GC
/Helvetica 13 F
GS
[1 0 0 1 0 0] CT
-8.271 12.067 moveto 
1 -1 scale
(22) t 
GR
GR
GS
[0 -0.75 0.75 0 91.96851 144.74998] CT
0.149 GC
/Helvetica 15 F
GS
[1 0 0 1 0 0] CT
-20.123 -2.538 moveto 
1 -1 scale
(Y \(m\)) t 
GR
GR
GS
[0.75 0 0 0.75 0 0] CT
0.149 GC
2 setlinecap
10.0 ML
N
148.5 356 M
148.5 30 L
S
GR
GS
[0.75 0 0 0.75 0 0] CT
0.149 GC
2 setlinecap
10.0 ML
N
474.5 356 M
474.5 30 L
S
GR
GS
[0.75 0 0 0.75 0 0] CT
0.149 GC
2 setlinecap
10.0 ML
N
148.5 328.546 M
151.76 328.546 L
S
GR
GS
[0.75 0 0 0.75 0 0] CT
0.149 GC
2 setlinecap
10.0 ML
N
474.5 328.546 M
471.24 328.546 L
S
GR
GS
[0.75 0 0 0.75 0 0] CT
0.149 GC
2 setlinecap
10.0 ML
N
148.5 274.213 M
151.76 274.213 L
S
GR
GS
[0.75 0 0 0.75 0 0] CT
0.149 GC
2 setlinecap
10.0 ML
N
474.5 274.213 M
471.24 274.213 L
S
GR
GS
[0.75 0 0 0.75 0 0] CT
0.149 GC
2 setlinecap
10.0 ML
N
148.5 219.88 M
151.76 219.88 L
S
GR
GS
[0.75 0 0 0.75 0 0] CT
0.149 GC
2 setlinecap
10.0 ML
N
474.5 219.88 M
471.24 219.88 L
S
GR
GS
[0.75 0 0 0.75 0 0] CT
0.149 GC
2 setlinecap
10.0 ML
N
148.5 165.546 M
151.76 165.546 L
S
GR
GS
[0.75 0 0 0.75 0 0] CT
0.149 GC
2 setlinecap
10.0 ML
N
474.5 165.546 M
471.24 165.546 L
S
GR
GS
[0.75 0 0 0.75 0 0] CT
0.149 GC
2 setlinecap
10.0 ML
N
148.5 111.213 M
151.76 111.213 L
S
GR
GS
[0.75 0 0 0.75 0 0] CT
0.149 GC
2 setlinecap
10.0 ML
N
474.5 111.213 M
471.24 111.213 L
S
GR
GS
[0.75 0 0 0.75 0 0] CT
0.149 GC
2 setlinecap
10.0 ML
N
148.5 56.88 M
151.76 56.88 L
S
GR
GS
[0.75 0 0 0.75 0 0] CT
0.149 GC
2 setlinecap
10.0 ML
N
474.5 56.88 M
471.24 56.88 L
S
GR
GS
[0.75 0 0 0.75 107.37497 246.40984] CT
0.149 GC
/Helvetica 13 F
GS
[1 0 0 1 0 0] CT
-16.542 4.5 moveto 
1 -1 scale
(21) t 
GR
GR
GS
[0.75 0 0 0.75 107.37497 205.65983] CT
0.149 GC
/Helvetica 13 F
GS
[1 0 0 1 0 0] CT
-16.542 4.5 moveto 
1 -1 scale
(22) t 
GR
GR
GS
[0.75 0 0 0.75 107.37497 164.90983] CT
0.149 GC
/Helvetica 13 F
GS
[1 0 0 1 0 0] CT
-16.542 4.5 moveto 
1 -1 scale
(23) t 
GR
GR
GS
[0.75 0 0 0.75 107.37497 124.15984] CT
0.149 GC
/Helvetica 13 F
GS
[1 0 0 1 0 0] CT
-16.542 4.5 moveto 
1 -1 scale
(24) t 
GR
GR
GS
[0.75 0 0 0.75 107.37497 83.40983] CT
0.149 GC
/Helvetica 13 F
GS
[1 0 0 1 0 0] CT
-16.542 4.5 moveto 
1 -1 scale
(25) t 
GR
GR
GS
[0.75 0 0 0.75 107.37497 42.65983] CT
0.149 GC
/Helvetica 13 F
GS
[1 0 0 1 0 0] CT
-16.542 4.5 moveto 
1 -1 scale
(26) t 
GR
GR
GS
[0.75 0 0 0.75 0 0] CT
0 1 0 RC
[10 6] 0 setdash
2 LJ
N
281.436 356.033 M
281.577 355.499 L
283.101 349.603 L
284.591 343.713 L
286.046 337.829 L
287.467 331.95 L
288.855 326.078 L
290.208 320.212 L
291.528 314.353 L
292.813 308.499 L
294.065 302.653 L
295.283 296.813 L
296.468 290.98 L
297.618 285.153 L
298.735 279.334 L
299.819 273.523 L
300.869 267.718 L
301.886 261.922 L
302.869 256.132 L
303.819 250.351 L
304.736 244.578 L
305.62 238.813 L
306.47 233.056 L
307.287 227.307 L
308.072 221.567 L
308.823 215.836 L
309.542 210.113 L
310.227 204.4 L
310.88 198.695 L
311.5 193 L
312.087 187.314 L
312.642 181.638 L
313.165 175.972 L
313.654 170.315 L
314.112 164.669 L
314.537 159.033 L
314.93 153.407 L
315.29 147.791 L
315.619 142.187 L
315.915 136.593 L
316.18 131.01 L
316.412 125.438 L
316.613 119.878 L
316.781 114.328 L
316.919 108.791 L
317.024 103.265 L
317.098 97.751 L
317.14 92.249 L
317.151 86.76 L
317.131 81.282 L
317.08 75.818 L
316.997 70.365 L
316.883 64.926 L
316.738 59.5 L
316.563 54.087 L
316.356 48.687 L
316.119 43.3 L
315.851 37.928 L
315.553 32.569 L
315.392 29.967 L
S
GR
GS
[0.75 0 0 0.75 0 0] CT
0 0 1 RC
2 setlinecap
10.0 ML
2.667 LW
N
329.519 252.829 M
290.347 122.766 L
S
GR
GS
[0.75 0 0 0.75 0 0] CT
1 0 0 RC
2 setlinecap
10.0 ML
10.667 LW
N
334.219 268.436 M
324.818 237.221 L
S
GR
GS
[0.75 0 0 0.75 0 0] CT
1 0 0 RC
2 setlinecap
10.0 ML
10.667 LW
N
298.204 137.048 M
282.491 108.485 L
S
GR
GS
[0.75 0 0 0.75 0 0] CT
1 GC
N
542 166 M
905 166 L
905 30 L
542 30 L
cp
f
GR
GS
[0.75 0 0 0.75 0 0] CT
0.149 GC
2 setlinecap
10.0 ML
N
542 166 M
905 166 L
S
GR
GS
[0.75 0 0 0.75 0 0] CT
0.149 GC
2 setlinecap
10.0 ML
N
542 30 M
905 30 L
S
GR
GS
[0.75 0 0 0.75 0 0] CT
0.149 GC
2 setlinecap
10.0 ML
N
542 166 M
542 162.37 L
S
GR
GS
[0.75 0 0 0.75 0 0] CT
0.149 GC
2 setlinecap
10.0 ML
N
542 30 M
542 33.63 L
S
GR
GS
[0.75 0 0 0.75 0 0] CT
0.149 GC
2 setlinecap
10.0 ML
N
614.6 166 M
614.6 162.37 L
S
GR
GS
[0.75 0 0 0.75 0 0] CT
0.149 GC
2 setlinecap
10.0 ML
N
614.6 30 M
614.6 33.63 L
S
GR
GS
[0.75 0 0 0.75 0 0] CT
0.149 GC
2 setlinecap
10.0 ML
N
687.2 166 M
687.2 162.37 L
S
GR
GS
[0.75 0 0 0.75 0 0] CT
0.149 GC
2 setlinecap
10.0 ML
N
687.2 30 M
687.2 33.63 L
S
GR
GS
[0.75 0 0 0.75 0 0] CT
0.149 GC
2 setlinecap
10.0 ML
N
759.8 166 M
759.8 162.37 L
S
GR
GS
[0.75 0 0 0.75 0 0] CT
0.149 GC
2 setlinecap
10.0 ML
N
759.8 30 M
759.8 33.63 L
S
GR
GS
[0.75 0 0 0.75 0 0] CT
0.149 GC
2 setlinecap
10.0 ML
N
832.4 166 M
832.4 162.37 L
S
GR
GS
[0.75 0 0 0.75 0 0] CT
0.149 GC
2 setlinecap
10.0 ML
N
832.4 30 M
832.4 33.63 L
S
GR
GS
[0.75 0 0 0.75 0 0] CT
0.149 GC
2 setlinecap
10.0 ML
N
905 166 M
905 162.37 L
S
GR
GS
[0.75 0 0 0.75 0 0] CT
0.149 GC
2 setlinecap
10.0 ML
N
905 30 M
905 33.63 L
S
GR
GS
[0.75 0 0 0.75 406.5 128.50001] CT
0.149 GC
/Helvetica 13 F
GS
[1 0 0 1 0 0] CT
-4.135 12.067 moveto 
1 -1 scale
(0) t 
GR
GR
GS
[0.75 0 0 0.75 460.94998 128.50001] CT
0.149 GC
/Helvetica 13 F
GS
[1 0 0 1 0 0] CT
-4.135 12.067 moveto 
1 -1 scale
(2) t 
GR
GR
GS
[0.75 0 0 0.75 515.40001 128.50001] CT
0.149 GC
/Helvetica 13 F
GS
[1 0 0 1 0 0] CT
-4.135 12.067 moveto 
1 -1 scale
(4) t 
GR
GR
GS
[0.75 0 0 0.75 569.84999 128.50001] CT
0.149 GC
/Helvetica 13 F
GS
[1 0 0 1 0 0] CT
-4.135 12.067 moveto 
1 -1 scale
(6) t 
GR
GR
GS
[0.75 0 0 0.75 624.30002 128.50001] CT
0.149 GC
/Helvetica 13 F
GS
[1 0 0 1 0 0] CT
-4.135 12.067 moveto 
1 -1 scale
(8) t 
GR
GR
GS
[0.75 0 0 0.75 678.75 128.50001] CT
0.149 GC
/Helvetica 13 F
GS
[1 0 0 1 0 0] CT
-8.271 12.067 moveto 
1 -1 scale
(10) t 
GR
GR
GS
[0 -0.75 0.75 0 383.57531 73.5] CT
0.149 GC
/Helvetica 15 F
GS
[1 0 0 1 0 0] CT
-29.055 -2.538 moveto 
1 -1 scale
(Sideslip) t 
GR
GR
GS
[0.75 0 0 0.75 0 0] CT
0.149 GC
2 setlinecap
10.0 ML
N
542 166 M
542 30 L
S
GR
GS
[0.75 0 0 0.75 0 0] CT
0.149 GC
2 setlinecap
10.0 ML
N
905 166 M
905 30 L
S
GR
GS
[0.75 0 0 0.75 0 0] CT
0.149 GC
2 setlinecap
10.0 ML
N
542 166 M
545.63 166 L
S
GR
GS
[0.75 0 0 0.75 0 0] CT
0.149 GC
2 setlinecap
10.0 ML
N
905 166 M
901.37 166 L
S
GR
GS
[0.75 0 0 0.75 0 0] CT
0.149 GC
2 setlinecap
10.0 ML
N
542 132 M
545.63 132 L
S
GR
GS
[0.75 0 0 0.75 0 0] CT
0.149 GC
2 setlinecap
10.0 ML
N
905 132 M
901.37 132 L
S
GR
GS
[0.75 0 0 0.75 0 0] CT
0.149 GC
2 setlinecap
10.0 ML
N
542 98 M
545.63 98 L
S
GR
GS
[0.75 0 0 0.75 0 0] CT
0.149 GC
2 setlinecap
10.0 ML
N
905 98 M
901.37 98 L
S
GR
GS
[0.75 0 0 0.75 0 0] CT
0.149 GC
2 setlinecap
10.0 ML
N
542 64 M
545.63 64 L
S
GR
GS
[0.75 0 0 0.75 0 0] CT
0.149 GC
2 setlinecap
10.0 ML
N
905 64 M
901.37 64 L
S
GR
GS
[0.75 0 0 0.75 0 0] CT
0.149 GC
2 setlinecap
10.0 ML
N
542 30 M
545.63 30 L
S
GR
GS
[0.75 0 0 0.75 0 0] CT
0.149 GC
2 setlinecap
10.0 ML
N
905 30 M
901.37 30 L
S
GR
GS
[0.75 0 0 0.75 402.50002 124.5] CT
0.149 GC
/Helvetica 13 F
GS
[1 0 0 1 0 0] CT
-21.233 4.5 moveto 
1 -1 scale
(-40) t 
GR
GR
GS
[0.75 0 0 0.75 402.50002 99] CT
0.149 GC
/Helvetica 13 F
GS
[1 0 0 1 0 0] CT
-21.233 4.5 moveto 
1 -1 scale
(-20) t 
GR
GR
GS
[0.75 0 0 0.75 402.50002 73.5] CT
0.149 GC
/Helvetica 13 F
GS
[1 0 0 1 0 0] CT
-8.271 4.5 moveto 
1 -1 scale
(0) t 
GR
GR
GS
[0.75 0 0 0.75 402.50002 48] CT
0.149 GC
/Helvetica 13 F
GS
[1 0 0 1 0 0] CT
-16.542 4.5 moveto 
1 -1 scale
(20) t 
GR
GR
GS
[0.75 0 0 0.75 402.50002 22.5] CT
0.149 GC
/Helvetica 13 F
GS
[1 0 0 1 0 0] CT
-16.542 4.5 moveto 
1 -1 scale
(40) t 
GR
GR
GS
[0.75 0 0 0.75 0 0] CT
0 0 1 RC
2 setlinecap
10.0 ML
2 LW
N
542 31.24 M
542.363 32.47 L
542.726 33.688 L
543.089 34.894 L
543.452 36.089 L
543.815 37.274 L
544.178 38.451 L
544.541 39.623 L
544.904 40.796 L
545.267 42.018 L
545.63 43.29 L
545.993 44.606 L
546.356 45.963 L
546.719 47.357 L
547.082 48.783 L
547.445 50.239 L
547.808 51.721 L
548.171 53.226 L
548.534 54.751 L
548.897 56.294 L
549.26 57.851 L
549.623 59.421 L
549.986 61 L
550.349 62.588 L
550.712 64.182 L
551.075 65.775 L
551.438 67.366 L
551.801 68.956 L
552.164 70.544 L
552.527 72.13 L
552.89 73.714 L
553.253 75.297 L
553.616 76.879 L
553.979 78.459 L
554.342 80.038 L
554.705 81.616 L
555.068 83.189 L
555.431 84.745 L
555.794 86.263 L
556.157 87.687 L
556.52 88.949 L
556.883 90.037 L
557.246 91.006 L
557.609 91.894 L
557.972 92.726 L
558.335 93.52 L
558.698 94.286 L
559.061 95.035 L
559.424 95.771 L
559.787 96.5 L
560.15 97.223 L
560.513 97.941 L
560.876 98.654 L
561.239 99.362 L
561.602 100.064 L
561.965 100.761 L
562.328 101.451 L
562.691 102.135 L
563.054 102.812 L
563.417 103.482 L
563.78 104.145 L
564.143 104.801 L
564.506 105.449 L
564.869 106.09 L
565.232 106.723 L
565.595 107.348 L
565.958 107.966 L
566.321 108.575 L
566.684 109.176 L
567.047 109.769 L
567.41 110.354 L
567.773 110.931 L
568.136 111.499 L
568.499 112.059 L
568.862 112.611 L
569.225 113.154 L
569.588 113.689 L
569.951 114.215 L
570.314 114.733 L
570.677 115.243 L
571.04 115.745 L
571.403 116.238 L
571.766 116.724 L
572.129 117.201 L
572.492 117.669 L
572.855 118.13 L
573.218 118.583 L
573.581 119.028 L
573.944 119.464 L
574.307 119.893 L
574.67 120.315 L
575.033 120.728 L
575.396 121.134 L
575.759 121.532 L
576.122 121.923 L
576.485 122.307 L
576.848 122.683 L
577.211 123.052 L
577.574 123.413 L
577.937 123.768 L
578.3 124.116 L
578.663 124.456 L
579.026 124.79 L
579.389 125.118 L
579.752 125.438 L
580.115 125.752 L
580.478 126.06 L
580.841 126.361 L
581.204 126.656 L
581.567 126.945 L
581.93 127.228 L
582.293 127.504 L
582.656 127.775 L
583.019 128.04 L
583.382 128.299 L
583.745 128.553 L
584.108 128.8 L
584.471 129.043 L
584.834 129.28 L
585.197 129.512 L
585.56 129.738 L
585.923 129.96 L
586.286 130.176 L
586.649 130.388 L
587.012 130.594 L
587.375 130.796 L
587.738 130.993 L
588.101 131.186 L
588.464 131.374 L
588.827 131.557 L
589.19 131.736 L
589.553 131.911 L
589.916 132.081 L
590.279 132.248 L
590.642 132.41 L
591.005 132.568 L
591.368 132.723 L
591.731 132.873 L
592.094 133.02 L
592.457 133.163 L
592.82 133.302 L
593.183 133.438 L
593.546 133.57 L
593.909 133.699 L
594.272 133.824 L
594.635 133.946 L
594.998 134.065 L
595.361 134.18 L
595.724 134.293 L
596.087 134.402 L
596.45 134.509 L
596.813 134.612 L
597.176 134.713 L
597.539 134.81 L
597.902 134.905 L
598.265 134.997 L
598.628 135.087 L
598.991 135.174 L
599.354 135.258 L
599.717 135.34 L
600.08 135.419 L
600.443 135.496 L
600.806 135.57 L
601.169 135.642 L
601.532 135.712 L
601.895 135.78 L
602.258 135.845 L
602.621 135.908 L
602.984 135.97 L
603.347 136.029 L
603.71 136.086 L
604.073 136.141 L
604.436 136.194 L
604.799 136.245 L
605.162 136.295 L
605.525 136.342 L
605.888 136.388 L
606.251 136.432 L
606.614 136.475 L
606.977 136.515 L
607.34 136.554 L
607.703 136.592 L
608.066 136.628 L
608.429 136.662 L
608.792 136.695 L
609.155 136.726 L
609.518 136.756 L
609.881 136.784 L
610.244 136.811 L
610.607 136.837 L
610.97 136.861 L
611.333 136.884 L
611.696 136.906 L
612.059 136.926 L
612.422 136.945 L
612.785 136.963 L
613.148 136.98 L
613.511 136.996 L
613.874 137.01 L
614.237 137.024 L
614.6 137.036 L
614.963 137.047 L
615.326 137.057 L
615.689 137.067 L
616.052 137.075 L
616.415 137.082 L
616.778 137.088 L
617.141 137.093 L
617.504 137.098 L
617.867 137.101 L
618.23 137.104 L
618.593 137.105 L
618.956 137.106 L
619.319 137.106 L
619.682 137.105 L
620.045 137.103 L
620.408 137.1 L
620.771 137.096 L
621.134 137.091 L
621.497 137.085 L
621.86 137.078 L
622.223 137.07 L
622.586 137.061 L
622.949 137.052 L
623.312 137.041 L
623.675 137.03 L
624.038 137.018 L
624.401 137.005 L
624.764 136.991 L
625.127 136.977 L
625.49 136.962 L
625.853 136.946 L
626.216 136.929 L
626.579 136.912 L
626.942 136.894 L
627.305 136.875 L
627.668 136.856 L
628.031 136.836 L
628.394 136.815 L
628.757 136.794 L
629.12 136.772 L
629.483 136.75 L
629.846 136.727 L
630.209 136.703 L
630.572 136.679 L
630.935 136.654 L
631.298 136.628 L
631.661 136.602 L
632.024 136.576 L
632.387 136.549 L
632.75 136.521 L
633.113 136.493 L
633.476 136.465 L
633.839 136.435 L
634.202 136.406 L
634.565 136.376 L
634.928 136.345 L
635.291 136.314 L
635.654 136.283 L
636.017 136.251 L
636.38 136.218 L
636.743 136.186 L
637.106 136.152 L
637.469 136.119 L
637.832 136.085 L
638.195 136.05 L
638.558 136.015 L
638.921 135.98 L
639.284 135.944 L
639.647 135.908 L
640.01 135.871 L
640.373 135.834 L
640.736 135.797 L
641.099 135.759 L
641.462 135.721 L
641.825 135.683 L
642.188 135.644 L
642.551 135.605 L
642.914 135.566 L
643.277 135.526 L
643.64 135.486 L
644.003 135.445 L
644.366 135.404 L
644.729 135.363 L
645.092 135.321 L
645.455 135.28 L
645.818 135.237 L
646.181 135.195 L
646.544 135.152 L
646.907 135.109 L
647.27 135.066 L
647.633 135.022 L
647.996 134.978 L
648.359 134.934 L
648.722 134.889 L
649.085 134.846 L
649.448 134.803 L
649.811 134.761 L
650.174 134.719 L
650.537 134.678 L
650.9 134.638 L
651.263 134.599 L
651.626 134.56 L
651.989 134.522 L
652.352 134.485 L
652.715 134.448 L
653.078 134.412 L
653.441 134.377 L
653.804 134.342 L
654.167 134.308 L
654.53 134.274 L
654.893 134.241 L
655.256 134.208 L
655.619 134.176 L
655.982 134.145 L
656.345 134.114 L
656.708 134.084 L
657.071 134.054 L
657.434 134.025 L
657.797 133.996 L
658.16 133.968 L
658.523 133.94 L
658.886 133.913 L
659.249 133.886 L
659.612 133.86 L
659.975 133.834 L
660.338 133.809 L
660.701 133.784 L
661.064 133.76 L
661.427 133.736 L
661.79 133.712 L
662.153 133.689 L
662.516 133.666 L
662.879 133.644 L
663.242 133.622 L
663.605 133.601 L
663.968 133.579 L
664.331 133.559 L
664.694 133.538 L
665.057 133.519 L
665.42 133.499 L
665.783 133.48 L
666.146 133.461 L
666.509 133.442 L
666.872 133.424 L
667.235 133.407 L
667.598 133.389 L
667.961 133.372 L
668.324 133.355 L
668.687 133.339 L
669.05 133.322 L
669.413 133.307 L
669.776 133.291 L
670.139 133.276 L
670.502 133.261 L
670.865 133.246 L
671.228 133.232 L
671.591 133.218 L
671.954 133.204 L
672.317 133.19 L
672.68 133.177 L
673.043 133.164 L
673.406 133.151 L
673.769 133.139 L
674.132 133.126 L
674.495 133.114 L
674.858 133.103 L
675.221 133.091 L
675.584 133.08 L
675.947 133.069 L
676.31 133.058 L
676.673 133.047 L
677.036 133.037 L
677.399 133.026 L
677.762 133.016 L
678.125 133.007 L
678.488 132.997 L
678.851 132.988 L
679.214 132.979 L
679.577 132.97 L
679.94 132.961 L
680.303 132.952 L
680.666 132.944 L
681.029 132.935 L
681.392 132.927 L
681.755 132.919 L
682.118 132.912 L
682.481 132.904 L
682.844 132.897 L
683.207 132.89 L
683.57 132.882 L
683.933 132.876 L
684.296 132.869 L
684.659 132.862 L
685.022 132.856 L
685.385 132.849 L
685.748 132.843 L
686.111 132.837 L
686.474 132.831 L
686.837 132.826 L
687.2 132.82 L
687.563 132.814 L
687.926 132.809 L
688.289 132.804 L
688.652 132.799 L
689.015 132.794 L
689.378 132.789 L
689.741 132.784 L
690.104 132.779 L
690.467 132.775 L
690.83 132.77 L
691.193 132.766 L
691.556 132.762 L
691.919 132.758 L
692.282 132.754 L
692.645 132.75 L
693.008 132.746 L
693.371 132.742 L
693.734 132.739 L
694.097 132.735 L
694.46 132.732 L
694.823 132.728 L
695.186 132.725 L
695.549 132.722 L
695.912 132.719 L
696.275 132.716 L
696.638 132.713 L
697.001 132.71 L
697.364 132.707 L
697.727 132.705 L
698.09 132.702 L
698.453 132.7 L
698.816 132.697 L
699.179 132.695 L
699.542 132.693 L
699.905 132.69 L
700.268 132.688 L
700.631 132.686 L
700.994 132.684 L
701.357 132.682 L
701.72 132.68 L
702.083 132.678 L
702.446 132.676 L
702.809 132.675 L
703.172 132.673 L
703.535 132.671 L
703.898 132.67 L
704.261 132.668 L
704.624 132.667 L
704.987 132.665 L
705.35 132.664 L
705.713 132.663 L
706.076 132.661 L
706.439 132.66 L
706.802 132.659 L
707.165 132.658 L
707.528 132.657 L
707.891 132.656 L
708.254 132.655 L
708.617 132.654 L
708.98 132.653 L
709.343 132.652 L
709.706 132.651 L
710.069 132.65 L
710.432 132.649 L
710.795 132.649 L
711.158 132.648 L
711.521 132.647 L
711.884 132.647 L
712.247 132.646 L
712.61 132.645 L
712.973 132.645 L
713.336 132.644 L
713.699 132.644 L
714.062 132.643 L
714.425 132.643 L
714.788 132.643 L
715.151 132.642 L
715.514 132.642 L
715.877 132.641 L
716.24 132.641 L
716.603 132.641 L
716.966 132.641 L
717.329 132.64 L
717.692 132.64 L
718.055 132.64 L
718.418 132.64 L
718.781 132.64 L
719.144 132.64 L
719.507 132.64 L
719.87 132.64 L
720.233 132.639 L
720.596 132.639 L
720.959 132.639 L
721.322 132.639 L
721.685 132.639 L
722.048 132.639 L
722.411 132.64 L
722.774 132.64 L
723.137 132.64 L
723.5 132.64 L
723.863 132.64 L
724.226 132.64 L
724.589 132.64 L
724.952 132.64 L
725.315 132.64 L
725.678 132.641 L
726.041 132.641 L
726.404 132.641 L
726.767 132.641 L
727.13 132.641 L
727.493 132.642 L
727.856 132.642 L
728.219 132.642 L
728.582 132.642 L
728.945 132.643 L
729.308 132.643 L
729.671 132.643 L
730.034 132.644 L
730.397 132.644 L
730.76 132.644 L
731.123 132.645 L
731.486 132.645 L
731.849 132.645 L
732.212 132.646 L
732.575 132.646 L
732.938 132.646 L
733.301 132.647 L
733.664 132.647 L
734.027 132.647 L
734.39 132.648 L
734.753 132.648 L
735.116 132.649 L
735.479 132.649 L
735.842 132.649 L
736.205 132.65 L
736.568 132.65 L
736.931 132.651 L
737.294 132.651 L
737.657 132.651 L
738.02 132.652 L
738.383 132.652 L
738.746 132.653 L
739.109 132.653 L
739.472 132.654 L
739.835 132.654 L
740.198 132.655 L
740.561 132.655 L
740.924 132.655 L
741.287 132.656 L
741.65 132.656 L
742.013 132.657 L
742.376 132.657 L
742.739 132.658 L
743.102 132.658 L
743.465 132.659 L
743.828 132.659 L
744.191 132.66 L
744.554 132.66 L
744.917 132.66 L
745.28 132.661 L
745.643 132.661 L
746.006 132.662 L
746.369 132.662 L
746.732 132.663 L
747.095 132.663 L
747.458 132.664 L
747.821 132.664 L
748.184 132.665 L
748.547 132.665 L
748.91 132.666 L
749.273 132.666 L
749.636 132.667 L
749.999 132.667 L
750.362 132.667 L
750.725 132.668 L
751.088 132.668 L
751.451 132.669 L
751.814 132.669 L
752.177 132.67 L
752.54 132.67 L
752.903 132.671 L
753.266 132.671 L
753.629 132.672 L
753.992 132.672 L
754.355 132.673 L
754.718 132.673 L
755.081 132.673 L
755.444 132.674 L
755.807 132.674 L
756.17 132.675 L
756.533 132.675 L
756.896 132.676 L
757.259 132.676 L
757.622 132.677 L
757.985 132.677 L
758.348 132.677 L
758.711 132.678 L
759.074 132.678 L
759.437 132.679 L
759.8 132.679 L
760.163 132.68 L
760.526 132.68 L
760.889 132.68 L
761.252 132.681 L
761.615 132.681 L
761.978 132.682 L
762.341 132.682 L
762.704 132.683 L
763.067 132.683 L
763.43 132.683 L
763.793 132.684 L
764.156 132.684 L
764.519 132.685 L
764.882 132.685 L
765.245 132.685 L
765.608 132.686 L
765.971 132.686 L
766.334 132.687 L
766.697 132.687 L
767.06 132.687 L
767.423 132.688 L
767.786 132.688 L
768.149 132.689 L
768.512 132.689 L
768.875 132.689 L
769.238 132.69 L
769.601 132.69 L
769.964 132.69 L
770.327 132.691 L
770.69 132.691 L
771.053 132.692 L
771.416 132.692 L
771.779 132.692 L
772.142 132.693 L
772.505 132.693 L
772.868 132.693 L
773.231 132.694 L
773.594 132.694 L
773.957 132.694 L
774.32 132.695 L
774.683 132.695 L
775.046 132.695 L
775.409 132.696 L
775.772 132.696 L
776.135 132.696 L
776.498 132.697 L
776.861 132.697 L
777.224 132.697 L
777.587 132.698 L
777.95 132.698 L
778.313 132.698 L
778.676 132.699 L
779.039 132.699 L
779.402 132.699 L
779.765 132.7 L
780.128 132.7 L
780.491 132.7 L
780.854 132.701 L
781.217 132.701 L
781.58 132.701 L
781.943 132.701 L
782.306 132.702 L
782.669 132.702 L
783.032 132.702 L
783.395 132.703 L
783.758 132.703 L
784.121 132.703 L
784.484 132.703 L
784.847 132.704 L
785.21 132.704 L
785.573 132.704 L
785.936 132.705 L
786.299 132.705 L
786.662 132.705 L
787.025 132.705 L
787.388 132.706 L
787.751 132.706 L
788.114 132.706 L
788.477 132.706 L
788.84 132.707 L
789.203 132.707 L
789.566 132.707 L
789.929 132.707 L
790.292 132.708 L
790.655 132.708 L
791.018 132.708 L
791.381 132.708 L
791.744 132.709 L
792.107 132.709 L
792.47 132.709 L
792.833 132.709 L
793.196 132.709 L
793.559 132.71 L
793.922 132.71 L
794.285 132.71 L
794.648 132.71 L
795.011 132.711 L
795.374 132.711 L
795.737 132.711 L
796.1 132.711 L
796.463 132.711 L
796.826 132.712 L
797.189 132.712 L
797.552 132.712 L
797.915 132.712 L
798.278 132.712 L
798.641 132.713 L
799.004 132.713 L
799.367 132.713 L
799.73 132.713 L
800.093 132.713 L
800.456 132.714 L
800.819 132.714 L
801.182 132.714 L
801.545 132.714 L
801.908 132.714 L
802.271 132.715 L
802.634 132.715 L
802.997 132.715 L
803.36 132.715 L
803.723 132.715 L
804.086 132.715 L
804.449 132.716 L
804.812 132.716 L
805.175 132.716 L
805.538 132.716 L
805.901 132.716 L
806.264 132.717 L
806.627 132.717 L
806.99 132.717 L
807.353 132.717 L
807.716 132.717 L
808.079 132.717 L
808.442 132.717 L
808.805 132.718 L
809.168 132.718 L
809.531 132.718 L
809.894 132.718 L
810.257 132.718 L
810.62 132.718 L
810.983 132.719 L
811.346 132.719 L
811.709 132.719 L
812.072 132.719 L
812.435 132.719 L
812.798 132.719 L
813.161 132.719 L
813.524 132.719 L
813.887 132.72 L
814.25 132.72 L
814.613 132.72 L
814.976 132.72 L
815.339 132.72 L
815.702 132.72 L
816.065 132.72 L
816.428 132.721 L
816.791 132.721 L
817.154 132.721 L
817.517 132.721 L
817.88 132.721 L
818.243 132.721 L
818.606 132.721 L
818.969 132.721 L
819.332 132.721 L
819.695 132.722 L
820.058 132.722 L
820.421 132.722 L
820.784 132.722 L
821.147 132.722 L
821.51 132.722 L
821.873 132.722 L
822.236 132.722 L
822.599 132.722 L
822.962 132.723 L
823.325 132.723 L
823.688 132.723 L
824.051 132.723 L
824.414 132.723 L
824.777 132.723 L
825.14 132.723 L
825.503 132.723 L
825.866 132.723 L
826.229 132.723 L
826.592 132.724 L
826.955 132.724 L
827.318 132.724 L
827.681 132.724 L
828.044 132.724 L
828.407 132.724 L
828.77 132.724 L
829.133 132.724 L
829.496 132.724 L
829.859 132.724 L
830.222 132.724 L
830.585 132.725 L
830.948 132.725 L
831.311 132.725 L
831.674 132.725 L
832.037 132.725 L
832.4 132.725 L
832.763 132.725 L
833.126 132.725 L
833.489 132.725 L
833.852 132.725 L
834.215 132.725 L
834.578 132.725 L
834.941 132.725 L
835.304 132.725 L
835.667 132.725 L
836.03 132.726 L
836.393 132.726 L
836.756 132.726 L
837.119 132.726 L
837.482 132.726 L
837.845 132.726 L
838.208 132.726 L
838.571 132.726 L
838.934 132.726 L
839.297 132.726 L
839.66 132.726 L
840.023 132.726 L
840.386 132.726 L
840.749 132.726 L
841.112 132.726 L
841.475 132.727 L
841.838 132.727 L
842.201 132.727 L
842.564 132.727 L
842.927 132.727 L
843.29 132.727 L
843.653 132.727 L
844.016 132.727 L
844.379 132.727 L
844.742 132.727 L
845.105 132.727 L
845.468 132.727 L
845.831 132.727 L
846.194 132.727 L
846.557 132.727 L
846.92 132.727 L
847.283 132.727 L
847.646 132.727 L
848.009 132.728 L
848.372 132.728 L
848.735 132.728 L
849.098 132.728 L
849.461 132.728 L
849.824 132.728 L
850.187 132.728 L
850.55 132.728 L
850.913 132.728 L
851.276 132.728 L
851.639 132.728 L
852.002 132.728 L
852.365 132.728 L
852.728 132.728 L
853.091 132.728 L
853.454 132.728 L
853.817 132.728 L
854.18 132.728 L
854.543 132.728 L
854.906 132.728 L
855.269 132.728 L
855.632 132.728 L
855.995 132.728 L
856.358 132.728 L
856.721 132.728 L
857.084 132.728 L
857.447 132.728 L
857.81 132.729 L
858.173 132.729 L
858.536 132.729 L
858.899 132.729 L
859.262 132.729 L
859.625 132.729 L
859.988 132.729 L
860.351 132.729 L
860.714 132.729 L
861.077 132.729 L
861.44 132.729 L
861.803 132.729 L
862.166 132.729 L
862.529 132.729 L
862.892 132.729 L
863.255 132.729 L
863.618 132.729 L
863.981 132.729 L
864.344 132.729 L
864.707 132.729 L
865.07 132.729 L
865.433 132.729 L
865.796 132.729 L
866.159 132.729 L
866.522 132.729 L
866.885 132.729 L
867.248 132.729 L
867.611 132.729 L
867.974 132.729 L
868.337 132.729 L
868.7 132.729 L
869.063 132.729 L
869.426 132.729 L
869.789 132.729 L
870.152 132.729 L
870.515 132.729 L
870.878 132.729 L
871.241 132.729 L
871.604 132.729 L
871.967 132.729 L
872.33 132.729 L
872.693 132.729 L
873.056 132.729 L
873.419 132.729 L
873.782 132.729 L
874.145 132.73 L
874.508 132.73 L
874.871 132.73 L
875.234 132.73 L
875.597 132.73 L
875.96 132.73 L
876.323 132.73 L
876.686 132.73 L
877.049 132.73 L
877.412 132.73 L
877.775 132.73 L
878.138 132.73 L
878.501 132.73 L
878.864 132.73 L
879.227 132.73 L
879.59 132.73 L
879.953 132.73 L
880.316 132.73 L
880.679 132.73 L
881.042 132.73 L
881.405 132.73 L
881.768 132.73 L
882.131 132.73 L
882.494 132.73 L
882.857 132.73 L
883.22 132.73 L
883.583 132.73 L
883.946 132.73 L
884.309 132.73 L
884.672 132.73 L
885.035 132.73 L
885.398 132.73 L
885.761 132.73 L
886.124 132.73 L
886.487 132.73 L
886.85 132.73 L
887.213 132.73 L
887.576 132.73 L
887.939 132.73 L
888.302 132.73 L
888.665 132.73 L
889.028 132.73 L
889.391 132.73 L
889.754 132.73 L
890.117 132.73 L
890.48 132.73 L
890.843 132.73 L
891.206 132.73 L
891.569 132.73 L
891.932 132.73 L
892.295 132.73 L
892.658 132.73 L
893.021 132.73 L
893.384 132.73 L
893.747 132.73 L
894.11 132.73 L
894.473 132.73 L
894.836 132.73 L
895.199 132.73 L
895.562 132.73 L
895.925 132.73 L
896.288 132.73 L
896.651 132.73 L
897.014 132.73 L
897.377 132.73 L
897.74 132.73 L
898.103 132.73 L
898.466 132.73 L
898.829 132.73 L
899.192 132.73 L
899.555 132.73 L
899.918 132.73 L
900.281 132.73 L
900.644 132.73 L
901.007 132.73 L
901.37 132.73 L
901.733 132.73 L
902.096 132.73 L
902.459 132.73 L
902.822 132.73 L
903.185 132.73 L
903.548 132.73 L
903.911 132.73 L
904.274 132.73 L
904.637 132.73 L
905 132.73 L
S
GR
GS
[0.75 0 0 0.75 0 0] CT
0 1 0 RC
2 setlinecap
10.0 ML
2 LW
N
542 132.748 M
542.363 132.748 L
542.726 132.748 L
543.089 132.748 L
543.452 132.748 L
543.815 132.748 L
544.178 132.748 L
544.541 132.748 L
544.904 132.748 L
545.267 132.748 L
545.63 132.748 L
545.993 132.748 L
546.356 132.748 L
546.719 132.748 L
547.082 132.748 L
547.445 132.748 L
547.808 132.748 L
548.171 132.748 L
548.534 132.748 L
548.897 132.748 L
549.26 132.748 L
549.623 132.748 L
549.986 132.748 L
550.349 132.748 L
550.712 132.748 L
551.075 132.748 L
551.438 132.748 L
551.801 132.748 L
552.164 132.748 L
552.527 132.748 L
552.89 132.748 L
553.253 132.748 L
553.616 132.748 L
553.979 132.748 L
554.342 132.748 L
554.705 132.748 L
555.068 132.748 L
555.431 132.748 L
555.794 132.748 L
556.157 132.748 L
556.52 132.748 L
556.883 132.748 L
557.246 132.748 L
557.609 132.748 L
557.972 132.748 L
558.335 132.748 L
558.698 132.748 L
559.061 132.748 L
559.424 132.748 L
559.787 132.748 L
560.15 132.748 L
560.513 132.748 L
560.876 132.748 L
561.239 132.748 L
561.602 132.748 L
561.965 132.748 L
562.328 132.748 L
562.691 132.748 L
563.054 132.748 L
563.417 132.748 L
563.78 132.748 L
564.143 132.748 L
564.506 132.748 L
564.869 132.748 L
565.232 132.748 L
565.595 132.748 L
565.958 132.748 L
566.321 132.748 L
566.684 132.748 L
567.047 132.748 L
567.41 132.748 L
567.773 132.748 L
568.136 132.748 L
568.499 132.748 L
568.862 132.748 L
569.225 132.748 L
569.588 132.748 L
569.951 132.748 L
570.314 132.748 L
570.677 132.748 L
571.04 132.748 L
571.403 132.748 L
571.766 132.748 L
572.129 132.748 L
572.492 132.748 L
572.855 132.748 L
573.218 132.748 L
573.581 132.748 L
573.944 132.748 L
574.307 132.748 L
574.67 132.748 L
575.033 132.748 L
575.396 132.748 L
575.759 132.748 L
576.122 132.748 L
576.485 132.748 L
576.848 132.748 L
577.211 132.748 L
577.574 132.748 L
577.937 132.748 L
578.3 132.748 L
578.663 132.748 L
579.026 132.748 L
579.389 132.748 L
579.752 132.748 L
580.115 132.748 L
580.478 132.748 L
580.841 132.748 L
581.204 132.748 L
581.567 132.748 L
581.93 132.748 L
582.293 132.748 L
582.656 132.748 L
583.019 132.748 L
583.382 132.748 L
583.745 132.748 L
584.108 132.748 L
584.471 132.748 L
584.834 132.748 L
585.197 132.748 L
585.56 132.748 L
585.923 132.748 L
586.286 132.748 L
586.649 132.748 L
587.012 132.748 L
587.375 132.748 L
587.738 132.748 L
588.101 132.748 L
588.464 132.748 L
588.827 132.748 L
589.19 132.748 L
589.553 132.748 L
589.916 132.748 L
590.279 132.748 L
590.642 132.748 L
591.005 132.748 L
591.368 132.748 L
591.731 132.748 L
592.094 132.748 L
592.457 132.748 L
592.82 132.748 L
593.183 132.748 L
593.546 132.748 L
593.909 132.748 L
594.272 132.748 L
594.635 132.748 L
594.998 132.748 L
595.361 132.748 L
595.724 132.748 L
596.087 132.748 L
596.45 132.748 L
596.813 132.748 L
597.176 132.748 L
597.539 132.748 L
597.902 132.748 L
598.265 132.748 L
598.628 132.748 L
598.991 132.748 L
599.354 132.748 L
599.717 132.748 L
600.08 132.748 L
600.443 132.748 L
600.806 132.748 L
601.169 132.748 L
601.532 132.748 L
601.895 132.748 L
602.258 132.748 L
602.621 132.748 L
602.984 132.748 L
603.347 132.748 L
603.71 132.748 L
604.073 132.748 L
604.436 132.748 L
604.799 132.748 L
605.162 132.748 L
605.525 132.748 L
605.888 132.748 L
606.251 132.748 L
606.614 132.748 L
606.977 132.748 L
607.34 132.748 L
607.703 132.748 L
608.066 132.748 L
608.429 132.748 L
608.792 132.748 L
609.155 132.748 L
609.518 132.748 L
609.881 132.748 L
610.244 132.748 L
610.607 132.748 L
610.97 132.748 L
611.333 132.748 L
611.696 132.748 L
612.059 132.748 L
612.422 132.748 L
612.785 132.748 L
613.148 132.748 L
613.511 132.748 L
613.874 132.748 L
614.237 132.748 L
614.6 132.748 L
614.963 132.748 L
615.326 132.748 L
615.689 132.748 L
616.052 132.748 L
616.415 132.748 L
616.778 132.748 L
617.141 132.748 L
617.504 132.748 L
617.867 132.748 L
618.23 132.748 L
618.593 132.748 L
618.956 132.748 L
619.319 132.748 L
619.682 132.748 L
620.045 132.748 L
620.408 132.748 L
620.771 132.748 L
621.134 132.748 L
621.497 132.748 L
621.86 132.748 L
622.223 132.748 L
622.586 132.748 L
622.949 132.748 L
623.312 132.748 L
623.675 132.748 L
624.038 132.748 L
624.401 132.748 L
624.764 132.748 L
625.127 132.748 L
625.49 132.748 L
625.853 132.748 L
626.216 132.748 L
626.579 132.748 L
626.942 132.748 L
627.305 132.748 L
627.668 132.748 L
628.031 132.748 L
628.394 132.748 L
628.757 132.748 L
629.12 132.748 L
629.483 132.748 L
629.846 132.748 L
630.209 132.748 L
630.572 132.748 L
630.935 132.748 L
631.298 132.748 L
631.661 132.748 L
632.024 132.748 L
632.387 132.748 L
632.75 132.748 L
633.113 132.748 L
633.476 132.748 L
633.839 132.748 L
634.202 132.748 L
634.565 132.748 L
634.928 132.748 L
635.291 132.748 L
635.654 132.748 L
636.017 132.748 L
636.38 132.748 L
636.743 132.748 L
637.106 132.748 L
637.469 132.748 L
637.832 132.748 L
638.195 132.748 L
638.558 132.748 L
638.921 132.748 L
639.284 132.748 L
639.647 132.748 L
640.01 132.748 L
640.373 132.748 L
640.736 132.748 L
641.099 132.748 L
641.462 132.748 L
641.825 132.748 L
642.188 132.748 L
642.551 132.748 L
642.914 132.748 L
643.277 132.748 L
643.64 132.748 L
644.003 132.748 L
644.366 132.748 L
644.729 132.748 L
645.092 132.748 L
645.455 132.748 L
645.818 132.748 L
646.181 132.748 L
646.544 132.748 L
646.907 132.748 L
647.27 132.748 L
647.633 132.748 L
647.996 132.748 L
648.359 132.748 L
648.722 132.748 L
649.085 132.748 L
649.448 132.748 L
649.811 132.748 L
650.174 132.748 L
650.537 132.748 L
650.9 132.748 L
651.263 132.748 L
651.626 132.748 L
651.989 132.748 L
652.352 132.748 L
652.715 132.748 L
653.078 132.748 L
653.441 132.748 L
653.804 132.748 L
654.167 132.748 L
654.53 132.748 L
654.893 132.748 L
655.256 132.748 L
655.619 132.748 L
655.982 132.748 L
656.345 132.748 L
656.708 132.748 L
657.071 132.748 L
657.434 132.748 L
657.797 132.748 L
658.16 132.748 L
658.523 132.748 L
658.886 132.748 L
659.249 132.748 L
659.612 132.748 L
659.975 132.748 L
660.338 132.748 L
660.701 132.748 L
661.064 132.748 L
661.427 132.748 L
661.79 132.748 L
662.153 132.748 L
662.516 132.748 L
662.879 132.748 L
663.242 132.748 L
663.605 132.748 L
663.968 132.748 L
664.331 132.748 L
664.694 132.748 L
665.057 132.748 L
665.42 132.748 L
665.783 132.748 L
666.146 132.748 L
666.509 132.748 L
666.872 132.748 L
667.235 132.748 L
667.598 132.748 L
667.961 132.748 L
668.324 132.748 L
668.687 132.748 L
669.05 132.748 L
669.413 132.748 L
669.776 132.748 L
670.139 132.748 L
670.502 132.748 L
670.865 132.748 L
671.228 132.748 L
671.591 132.748 L
671.954 132.748 L
672.317 132.748 L
672.68 132.748 L
673.043 132.748 L
673.406 132.748 L
673.769 132.748 L
674.132 132.748 L
674.495 132.748 L
674.858 132.748 L
675.221 132.748 L
675.584 132.748 L
675.947 132.748 L
676.31 132.748 L
676.673 132.748 L
677.036 132.748 L
677.399 132.748 L
677.762 132.748 L
678.125 132.748 L
678.488 132.748 L
678.851 132.748 L
679.214 132.748 L
679.577 132.748 L
679.94 132.748 L
680.303 132.748 L
680.666 132.748 L
681.029 132.748 L
681.392 132.748 L
681.755 132.748 L
682.118 132.748 L
682.481 132.748 L
682.844 132.748 L
683.207 132.748 L
683.57 132.748 L
683.933 132.748 L
684.296 132.748 L
684.659 132.748 L
685.022 132.748 L
685.385 132.748 L
685.748 132.748 L
686.111 132.748 L
686.474 132.748 L
686.837 132.748 L
687.2 132.748 L
687.563 132.748 L
687.926 132.748 L
688.289 132.748 L
688.652 132.748 L
689.015 132.748 L
689.378 132.748 L
689.741 132.748 L
690.104 132.748 L
690.467 132.748 L
690.83 132.748 L
691.193 132.748 L
691.556 132.748 L
691.919 132.748 L
692.282 132.748 L
692.645 132.748 L
693.008 132.748 L
693.371 132.748 L
693.734 132.748 L
694.097 132.748 L
694.46 132.748 L
694.823 132.748 L
695.186 132.748 L
695.549 132.748 L
695.912 132.748 L
696.275 132.748 L
696.638 132.748 L
697.001 132.748 L
697.364 132.748 L
697.727 132.748 L
698.09 132.748 L
698.453 132.748 L
698.816 132.748 L
699.179 132.748 L
699.542 132.748 L
699.905 132.748 L
700.268 132.748 L
700.631 132.748 L
700.994 132.748 L
701.357 132.748 L
701.72 132.748 L
702.083 132.748 L
702.446 132.748 L
702.809 132.748 L
703.172 132.748 L
703.535 132.748 L
703.898 132.748 L
704.261 132.748 L
704.624 132.748 L
704.987 132.748 L
705.35 132.748 L
705.713 132.748 L
706.076 132.748 L
706.439 132.748 L
706.802 132.748 L
707.165 132.748 L
707.528 132.748 L
707.891 132.748 L
708.254 132.748 L
708.617 132.748 L
708.98 132.748 L
709.343 132.748 L
709.706 132.748 L
710.069 132.748 L
710.432 132.748 L
710.795 132.748 L
711.158 132.748 L
711.521 132.748 L
711.884 132.748 L
712.247 132.748 L
712.61 132.748 L
712.973 132.748 L
713.336 132.748 L
713.699 132.748 L
714.062 132.748 L
714.425 132.748 L
714.788 132.748 L
715.151 132.748 L
715.514 132.748 L
715.877 132.748 L
716.24 132.748 L
716.603 132.748 L
716.966 132.748 L
717.329 132.748 L
717.692 132.748 L
718.055 132.748 L
718.418 132.748 L
718.781 132.748 L
719.144 132.748 L
719.507 132.748 L
719.87 132.748 L
720.233 132.748 L
720.596 132.748 L
720.959 132.748 L
721.322 132.748 L
721.685 132.748 L
722.048 132.748 L
722.411 132.748 L
722.774 132.748 L
723.137 132.748 L
723.5 132.748 L
723.863 132.748 L
724.226 132.748 L
724.589 132.748 L
724.952 132.748 L
725.315 132.748 L
725.678 132.748 L
726.041 132.748 L
726.404 132.748 L
726.767 132.748 L
727.13 132.748 L
727.493 132.748 L
727.856 132.748 L
728.219 132.748 L
728.582 132.748 L
728.945 132.748 L
729.308 132.748 L
729.671 132.748 L
730.034 132.748 L
730.397 132.748 L
730.76 132.748 L
731.123 132.748 L
731.486 132.748 L
731.849 132.748 L
732.212 132.748 L
732.575 132.748 L
732.938 132.748 L
733.301 132.748 L
733.664 132.748 L
734.027 132.748 L
734.39 132.748 L
734.753 132.748 L
735.116 132.748 L
735.479 132.748 L
735.842 132.748 L
736.205 132.748 L
736.568 132.748 L
736.931 132.748 L
737.294 132.748 L
737.657 132.748 L
738.02 132.748 L
738.383 132.748 L
738.746 132.748 L
739.109 132.748 L
739.472 132.748 L
739.835 132.748 L
740.198 132.748 L
740.561 132.748 L
740.924 132.748 L
741.287 132.748 L
741.65 132.748 L
742.013 132.748 L
742.376 132.748 L
742.739 132.748 L
743.102 132.748 L
743.465 132.748 L
743.828 132.748 L
744.191 132.748 L
744.554 132.748 L
744.917 132.748 L
745.28 132.748 L
745.643 132.748 L
746.006 132.748 L
746.369 132.748 L
746.732 132.748 L
747.095 132.748 L
747.458 132.748 L
747.821 132.748 L
748.184 132.748 L
748.547 132.748 L
748.91 132.748 L
749.273 132.748 L
749.636 132.748 L
749.999 132.748 L
750.362 132.748 L
750.725 132.748 L
751.088 132.748 L
751.451 132.748 L
751.814 132.748 L
752.177 132.748 L
752.54 132.748 L
752.903 132.748 L
753.266 132.748 L
753.629 132.748 L
753.992 132.748 L
754.355 132.748 L
754.718 132.748 L
755.081 132.748 L
755.444 132.748 L
755.807 132.748 L
756.17 132.748 L
756.533 132.748 L
756.896 132.748 L
757.259 132.748 L
757.622 132.748 L
757.985 132.748 L
758.348 132.748 L
758.711 132.748 L
759.074 132.748 L
759.437 132.748 L
759.8 132.748 L
760.163 132.748 L
760.526 132.748 L
760.889 132.748 L
761.252 132.748 L
761.615 132.748 L
761.978 132.748 L
762.341 132.748 L
762.704 132.748 L
763.067 132.748 L
763.43 132.748 L
763.793 132.748 L
764.156 132.748 L
764.519 132.748 L
764.882 132.748 L
765.245 132.748 L
765.608 132.748 L
765.971 132.748 L
766.334 132.748 L
766.697 132.748 L
767.06 132.748 L
767.423 132.748 L
767.786 132.748 L
768.149 132.748 L
768.512 132.748 L
768.875 132.748 L
769.238 132.748 L
769.601 132.748 L
769.964 132.748 L
770.327 132.748 L
770.69 132.748 L
771.053 132.748 L
771.416 132.748 L
771.779 132.748 L
772.142 132.748 L
772.505 132.748 L
772.868 132.748 L
773.231 132.748 L
773.594 132.748 L
773.957 132.748 L
774.32 132.748 L
774.683 132.748 L
775.046 132.748 L
775.409 132.748 L
775.772 132.748 L
776.135 132.748 L
776.498 132.748 L
776.861 132.748 L
777.224 132.748 L
777.587 132.748 L
777.95 132.748 L
778.313 132.748 L
778.676 132.748 L
779.039 132.748 L
779.402 132.748 L
779.765 132.748 L
780.128 132.748 L
780.491 132.748 L
780.854 132.748 L
781.217 132.748 L
781.58 132.748 L
781.943 132.748 L
782.306 132.748 L
782.669 132.748 L
783.032 132.748 L
783.395 132.748 L
783.758 132.748 L
784.121 132.748 L
784.484 132.748 L
784.847 132.748 L
785.21 132.748 L
785.573 132.748 L
785.936 132.748 L
786.299 132.748 L
786.662 132.748 L
787.025 132.748 L
787.388 132.748 L
787.751 132.748 L
788.114 132.748 L
788.477 132.748 L
788.84 132.748 L
789.203 132.748 L
789.566 132.748 L
789.929 132.748 L
790.292 132.748 L
790.655 132.748 L
791.018 132.748 L
791.381 132.748 L
791.744 132.748 L
792.107 132.748 L
792.47 132.748 L
792.833 132.748 L
793.196 132.748 L
793.559 132.748 L
793.922 132.748 L
794.285 132.748 L
794.648 132.748 L
795.011 132.748 L
795.374 132.748 L
795.737 132.748 L
796.1 132.748 L
796.463 132.748 L
796.826 132.748 L
797.189 132.748 L
797.552 132.748 L
797.915 132.748 L
798.278 132.748 L
798.641 132.748 L
799.004 132.748 L
799.367 132.748 L
799.73 132.748 L
800.093 132.748 L
800.456 132.748 L
800.819 132.748 L
801.182 132.748 L
801.545 132.748 L
801.908 132.748 L
802.271 132.748 L
802.634 132.748 L
802.997 132.748 L
803.36 132.748 L
803.723 132.748 L
804.086 132.748 L
804.449 132.748 L
804.812 132.748 L
805.175 132.748 L
805.538 132.748 L
805.901 132.748 L
806.264 132.748 L
806.627 132.748 L
806.99 132.748 L
807.353 132.748 L
807.716 132.748 L
808.079 132.748 L
808.442 132.748 L
808.805 132.748 L
809.168 132.748 L
809.531 132.748 L
809.894 132.748 L
810.257 132.748 L
810.62 132.748 L
810.983 132.748 L
811.346 132.748 L
811.709 132.748 L
812.072 132.748 L
812.435 132.748 L
812.798 132.748 L
813.161 132.748 L
813.524 132.748 L
813.887 132.748 L
814.25 132.748 L
814.613 132.748 L
814.976 132.748 L
815.339 132.748 L
815.702 132.748 L
816.065 132.748 L
816.428 132.748 L
816.791 132.748 L
817.154 132.748 L
817.517 132.748 L
817.88 132.748 L
818.243 132.748 L
818.606 132.748 L
818.969 132.748 L
819.332 132.748 L
819.695 132.748 L
820.058 132.748 L
820.421 132.748 L
820.784 132.748 L
821.147 132.748 L
821.51 132.748 L
821.873 132.748 L
822.236 132.748 L
822.599 132.748 L
822.962 132.748 L
823.325 132.748 L
823.688 132.748 L
824.051 132.748 L
824.414 132.748 L
824.777 132.748 L
825.14 132.748 L
825.503 132.748 L
825.866 132.748 L
826.229 132.748 L
826.592 132.748 L
826.955 132.748 L
827.318 132.748 L
827.681 132.748 L
828.044 132.748 L
828.407 132.748 L
828.77 132.748 L
829.133 132.748 L
829.496 132.748 L
829.859 132.748 L
830.222 132.748 L
830.585 132.748 L
830.948 132.748 L
831.311 132.748 L
831.674 132.748 L
832.037 132.748 L
832.4 132.748 L
832.763 132.748 L
833.126 132.748 L
833.489 132.748 L
833.852 132.748 L
834.215 132.748 L
834.578 132.748 L
834.941 132.748 L
835.304 132.748 L
835.667 132.748 L
836.03 132.748 L
836.393 132.748 L
836.756 132.748 L
837.119 132.748 L
837.482 132.748 L
837.845 132.748 L
838.208 132.748 L
838.571 132.748 L
838.934 132.748 L
839.297 132.748 L
839.66 132.748 L
840.023 132.748 L
840.386 132.748 L
840.749 132.748 L
841.112 132.748 L
841.475 132.748 L
841.838 132.748 L
842.201 132.748 L
842.564 132.748 L
842.927 132.748 L
843.29 132.748 L
843.653 132.748 L
844.016 132.748 L
844.379 132.748 L
844.742 132.748 L
845.105 132.748 L
845.468 132.748 L
845.831 132.748 L
846.194 132.748 L
846.557 132.748 L
846.92 132.748 L
847.283 132.748 L
847.646 132.748 L
848.009 132.748 L
848.372 132.748 L
848.735 132.748 L
849.098 132.748 L
849.461 132.748 L
849.824 132.748 L
850.187 132.748 L
850.55 132.748 L
850.913 132.748 L
851.276 132.748 L
851.639 132.748 L
852.002 132.748 L
852.365 132.748 L
852.728 132.748 L
853.091 132.748 L
853.454 132.748 L
853.817 132.748 L
854.18 132.748 L
854.543 132.748 L
854.906 132.748 L
855.269 132.748 L
855.632 132.748 L
855.995 132.748 L
856.358 132.748 L
856.721 132.748 L
857.084 132.748 L
857.447 132.748 L
857.81 132.748 L
858.173 132.748 L
858.536 132.748 L
858.899 132.748 L
859.262 132.748 L
859.625 132.748 L
859.988 132.748 L
860.351 132.748 L
860.714 132.748 L
861.077 132.748 L
861.44 132.748 L
861.803 132.748 L
862.166 132.748 L
862.529 132.748 L
862.892 132.748 L
863.255 132.748 L
863.618 132.748 L
863.981 132.748 L
864.344 132.748 L
864.707 132.748 L
865.07 132.748 L
865.433 132.748 L
865.796 132.748 L
866.159 132.748 L
866.522 132.748 L
866.885 132.748 L
867.248 132.748 L
867.611 132.748 L
867.974 132.748 L
868.337 132.748 L
868.7 132.748 L
869.063 132.748 L
869.426 132.748 L
869.789 132.748 L
870.152 132.748 L
870.515 132.748 L
870.878 132.748 L
871.241 132.748 L
871.604 132.748 L
871.967 132.748 L
872.33 132.748 L
872.693 132.748 L
873.056 132.748 L
873.419 132.748 L
873.782 132.748 L
874.145 132.748 L
874.508 132.748 L
874.871 132.748 L
875.234 132.748 L
875.597 132.748 L
875.96 132.748 L
876.323 132.748 L
876.686 132.748 L
877.049 132.748 L
877.412 132.748 L
877.775 132.748 L
878.138 132.748 L
878.501 132.748 L
878.864 132.748 L
879.227 132.748 L
879.59 132.748 L
879.953 132.748 L
880.316 132.748 L
880.679 132.748 L
881.042 132.748 L
881.405 132.748 L
881.768 132.748 L
882.131 132.748 L
882.494 132.748 L
882.857 132.748 L
883.22 132.748 L
883.583 132.748 L
883.946 132.748 L
884.309 132.748 L
884.672 132.748 L
885.035 132.748 L
885.398 132.748 L
885.761 132.748 L
886.124 132.748 L
886.487 132.748 L
886.85 132.748 L
887.213 132.748 L
887.576 132.748 L
887.939 132.748 L
888.302 132.748 L
888.665 132.748 L
889.028 132.748 L
889.391 132.748 L
889.754 132.748 L
890.117 132.748 L
890.48 132.748 L
890.843 132.748 L
891.206 132.748 L
891.569 132.748 L
891.932 132.748 L
892.295 132.748 L
892.658 132.748 L
893.021 132.748 L
893.384 132.748 L
893.747 132.748 L
894.11 132.748 L
894.473 132.748 L
894.836 132.748 L
895.199 132.748 L
895.562 132.748 L
895.925 132.748 L
896.288 132.748 L
896.651 132.748 L
897.014 132.748 L
897.377 132.748 L
897.74 132.748 L
898.103 132.748 L
898.466 132.748 L
898.829 132.748 L
899.192 132.748 L
899.555 132.748 L
899.918 132.748 L
900.281 132.748 L
900.644 132.748 L
901.007 132.748 L
901.37 132.748 L
901.733 132.748 L
902.096 132.748 L
902.459 132.748 L
902.822 132.748 L
903.185 132.748 L
903.548 132.748 L
903.911 132.748 L
904.274 132.748 L
904.637 132.748 L
905 132.748 L
S
GR
GS
[0.75 0 0 0.75 0 0] CT
1 0 0 RC
N
632.5 136.5 M
636.5 136.5 L
635.328 133.672 L
cp
f
GR
GS
[0.75 0 0 0.75 0 0] CT
1 0 0 RC
N
632.5 136.5 M
635.328 133.672 L
632.5 132.5 L
cp
f
GR
GS
[0.75 0 0 0.75 0 0] CT
1 0 0 RC
N
632.5 136.5 M
632.5 132.5 L
629.672 133.672 L
cp
f
GR
GS
[0.75 0 0 0.75 0 0] CT
1 0 0 RC
N
632.5 136.5 M
629.672 133.672 L
628.5 136.5 L
cp
f
GR
GS
[0.75 0 0 0.75 0 0] CT
1 0 0 RC
N
632.5 136.5 M
628.5 136.5 L
629.672 139.328 L
cp
f
GR
GS
[0.75 0 0 0.75 0 0] CT
1 0 0 RC
N
632.5 136.5 M
629.672 139.328 L
632.5 140.5 L
cp
f
GR
GS
[0.75 0 0 0.75 0 0] CT
1 0 0 RC
N
632.5 136.5 M
632.5 140.5 L
635.328 139.328 L
cp
f
GR
GS
[0.75 0 0 0.75 0 0] CT
1 0 0 RC
N
632.5 136.5 M
635.328 139.328 L
636.5 136.5 L
cp
f
GR
GS
[0.75 0 0 0.75 0 0] CT
1 0 0 RC
2 setlinecap
10.0 ML
N
636.5 136.5 M
635.736 134.149 L
633.736 132.696 L
631.264 132.696 L
629.264 134.149 L
628.5 136.5 L
629.264 138.851 L
631.264 140.304 L
633.736 140.304 L
635.736 138.851 L
636.5 136.5 L
S
GR
GS
[0.75 0 0 0.75 0 0] CT
1 GC
N
542 356 M
905 356 L
905 220 L
542 220 L
cp
f
GR
GS
[0.75 0 0 0.75 542.625 283.3496] CT
0.149 GC
/Helvetica 15 F
GS
[1 0 0 1 0 0] CT
-18.585 13.923 moveto 
1 -1 scale
(Time) t 
GR
GR
GS
[0.75 0 0 0.75 0 0] CT
0.149 GC
2 setlinecap
10.0 ML
N
542 356 M
905 356 L
S
GR
GS
[0.75 0 0 0.75 0 0] CT
0.149 GC
2 setlinecap
10.0 ML
N
542 220 M
905 220 L
S
GR
GS
[0.75 0 0 0.75 0 0] CT
0.149 GC
2 setlinecap
10.0 ML
N
542 356 M
542 352.37 L
S
GR
GS
[0.75 0 0 0.75 0 0] CT
0.149 GC
2 setlinecap
10.0 ML
N
542 220 M
542 223.63 L
S
GR
GS
[0.75 0 0 0.75 0 0] CT
0.149 GC
2 setlinecap
10.0 ML
N
614.6 356 M
614.6 352.37 L
S
GR
GS
[0.75 0 0 0.75 0 0] CT
0.149 GC
2 setlinecap
10.0 ML
N
614.6 220 M
614.6 223.63 L
S
GR
GS
[0.75 0 0 0.75 0 0] CT
0.149 GC
2 setlinecap
10.0 ML
N
687.2 356 M
687.2 352.37 L
S
GR
GS
[0.75 0 0 0.75 0 0] CT
0.149 GC
2 setlinecap
10.0 ML
N
687.2 220 M
687.2 223.63 L
S
GR
GS
[0.75 0 0 0.75 0 0] CT
0.149 GC
2 setlinecap
10.0 ML
N
759.8 356 M
759.8 352.37 L
S
GR
GS
[0.75 0 0 0.75 0 0] CT
0.149 GC
2 setlinecap
10.0 ML
N
759.8 220 M
759.8 223.63 L
S
GR
GS
[0.75 0 0 0.75 0 0] CT
0.149 GC
2 setlinecap
10.0 ML
N
832.4 356 M
832.4 352.37 L
S
GR
GS
[0.75 0 0 0.75 0 0] CT
0.149 GC
2 setlinecap
10.0 ML
N
832.4 220 M
832.4 223.63 L
S
GR
GS
[0.75 0 0 0.75 0 0] CT
0.149 GC
2 setlinecap
10.0 ML
N
905 356 M
905 352.37 L
S
GR
GS
[0.75 0 0 0.75 0 0] CT
0.149 GC
2 setlinecap
10.0 ML
N
905 220 M
905 223.63 L
S
GR
GS
[0.75 0 0 0.75 406.5 271.00001] CT
0.149 GC
/Helvetica 13 F
GS
[1 0 0 1 0 0] CT
-4.135 12.067 moveto 
1 -1 scale
(0) t 
GR
GR
GS
[0.75 0 0 0.75 460.94998 271.00001] CT
0.149 GC
/Helvetica 13 F
GS
[1 0 0 1 0 0] CT
-4.135 12.067 moveto 
1 -1 scale
(2) t 
GR
GR
GS
[0.75 0 0 0.75 515.40001 271.00001] CT
0.149 GC
/Helvetica 13 F
GS
[1 0 0 1 0 0] CT
-4.135 12.067 moveto 
1 -1 scale
(4) t 
GR
GR
GS
[0.75 0 0 0.75 569.84999 271.00001] CT
0.149 GC
/Helvetica 13 F
GS
[1 0 0 1 0 0] CT
-4.135 12.067 moveto 
1 -1 scale
(6) t 
GR
GR
GS
[0.75 0 0 0.75 624.30002 271.00001] CT
0.149 GC
/Helvetica 13 F
GS
[1 0 0 1 0 0] CT
-4.135 12.067 moveto 
1 -1 scale
(8) t 
GR
GR
GS
[0.75 0 0 0.75 678.75 271.00001] CT
0.149 GC
/Helvetica 13 F
GS
[1 0 0 1 0 0] CT
-8.271 12.067 moveto 
1 -1 scale
(10) t 
GR
GR
GS
[0 -0.75 0.75 0 387.09352 216] CT
0.149 GC
/Helvetica 15 F
GS
[1 0 0 1 0 0] CT
-62.948 -2.538 moveto 
1 -1 scale
(Forward Velocity) t 
GR
GR
GS
[0.75 0 0 0.75 0 0] CT
0.149 GC
2 setlinecap
10.0 ML
N
542 356 M
542 220 L
S
GR
GS
[0.75 0 0 0.75 0 0] CT
0.149 GC
2 setlinecap
10.0 ML
N
905 356 M
905 220 L
S
GR
GS
[0.75 0 0 0.75 0 0] CT
0.149 GC
2 setlinecap
10.0 ML
N
542 356 M
545.63 356 L
S
GR
GS
[0.75 0 0 0.75 0 0] CT
0.149 GC
2 setlinecap
10.0 ML
N
905 356 M
901.37 356 L
S
GR
GS
[0.75 0 0 0.75 0 0] CT
0.149 GC
2 setlinecap
10.0 ML
N
542 310.667 M
545.63 310.667 L
S
GR
GS
[0.75 0 0 0.75 0 0] CT
0.149 GC
2 setlinecap
10.0 ML
N
905 310.667 M
901.37 310.667 L
S
GR
GS
[0.75 0 0 0.75 0 0] CT
0.149 GC
2 setlinecap
10.0 ML
N
542 265.333 M
545.63 265.333 L
S
GR
GS
[0.75 0 0 0.75 0 0] CT
0.149 GC
2 setlinecap
10.0 ML
N
905 265.333 M
901.37 265.333 L
S
GR
GS
[0.75 0 0 0.75 0 0] CT
0.149 GC
2 setlinecap
10.0 ML
N
542 220 M
545.63 220 L
S
GR
GS
[0.75 0 0 0.75 0 0] CT
0.149 GC
2 setlinecap
10.0 ML
N
905 220 M
901.37 220 L
S
GR
GS
[0.75 0 0 0.75 402.50002 267] CT
0.149 GC
/Helvetica 13 F
GS
[1 0 0 1 0 0] CT
-8.271 4.5 moveto 
1 -1 scale
(8) t 
GR
GR
GS
[0.75 0 0 0.75 402.50002 232.99999] CT
0.149 GC
/Helvetica 13 F
GS
[1 0 0 1 0 0] CT
-16.542 4.5 moveto 
1 -1 scale
(10) t 
GR
GR
GS
[0.75 0 0 0.75 402.50002 199.00001] CT
0.149 GC
/Helvetica 13 F
GS
[1 0 0 1 0 0] CT
-16.542 4.5 moveto 
1 -1 scale
(12) t 
GR
GR
GS
[0.75 0 0 0.75 402.50002 165] CT
0.149 GC
/Helvetica 13 F
GS
[1 0 0 1 0 0] CT
-16.542 4.5 moveto 
1 -1 scale
(14) t 
GR
GR
GS
[0.75 0 0 0.75 0 0] CT
0 0 1 RC
2 setlinecap
10.0 ML
2 LW
N
542 286.309 M
542.363 284.645 L
542.726 283.007 L
543.089 281.399 L
543.452 279.819 L
543.815 278.265 L
544.178 276.737 L
544.541 275.228 L
544.904 273.734 L
545.267 272.181 L
545.63 270.574 L
545.993 268.921 L
546.356 267.235 L
546.719 265.523 L
547.082 263.796 L
547.445 262.061 L
547.808 260.328 L
548.171 258.603 L
548.534 256.895 L
548.897 255.209 L
549.26 253.553 L
549.623 251.933 L
549.986 250.353 L
550.349 248.821 L
550.712 247.345 L
551.075 245.936 L
551.438 244.587 L
551.801 243.298 L
552.164 242.069 L
552.527 240.903 L
552.89 239.799 L
553.253 238.758 L
553.616 237.781 L
553.979 236.868 L
554.342 236.02 L
554.705 235.238 L
555.068 234.522 L
555.431 233.873 L
555.794 233.291 L
556.157 232.764 L
556.52 232.334 L
556.883 232.005 L
557.246 231.753 L
557.609 231.562 L
557.972 231.42 L
558.335 231.319 L
558.698 231.252 L
559.061 231.215 L
559.424 231.204 L
559.787 231.217 L
560.15 231.251 L
560.513 231.306 L
560.876 231.382 L
561.239 231.478 L
561.602 231.594 L
561.965 231.729 L
562.328 231.883 L
562.691 232.055 L
563.054 232.246 L
563.417 232.454 L
563.78 232.679 L
564.143 232.921 L
564.506 233.178 L
564.869 233.451 L
565.232 233.739 L
565.595 234.041 L
565.958 234.357 L
566.321 234.686 L
566.684 235.028 L
567.047 235.382 L
567.41 235.748 L
567.773 236.125 L
568.136 236.512 L
568.499 236.909 L
568.862 237.315 L
569.225 237.731 L
569.588 238.155 L
569.951 238.587 L
570.314 239.026 L
570.677 239.473 L
571.04 239.926 L
571.403 240.385 L
571.766 240.851 L
572.129 241.321 L
572.492 241.797 L
572.855 242.277 L
573.218 242.761 L
573.581 243.249 L
573.944 243.741 L
574.307 244.236 L
574.67 244.734 L
575.033 245.234 L
575.396 245.737 L
575.759 246.241 L
576.122 246.748 L
576.485 247.256 L
576.848 247.765 L
577.211 248.275 L
577.574 248.786 L
577.937 249.298 L
578.3 249.81 L
578.663 250.322 L
579.026 250.835 L
579.389 251.347 L
579.752 251.859 L
580.115 252.37 L
580.478 252.881 L
580.841 253.391 L
581.204 253.901 L
581.567 254.409 L
581.93 254.916 L
582.293 255.422 L
582.656 255.927 L
583.019 256.431 L
583.382 256.933 L
583.745 257.434 L
584.108 257.933 L
584.471 258.43 L
584.834 258.926 L
585.197 259.42 L
585.56 259.912 L
585.923 260.403 L
586.286 260.891 L
586.649 261.378 L
587.012 261.862 L
587.375 262.345 L
587.738 262.825 L
588.101 263.304 L
588.464 263.78 L
588.827 264.255 L
589.19 264.727 L
589.553 265.198 L
589.916 265.666 L
590.279 266.132 L
590.642 266.596 L
591.005 267.058 L
591.368 267.518 L
591.731 267.976 L
592.094 268.432 L
592.457 268.886 L
592.82 269.337 L
593.183 269.787 L
593.546 270.235 L
593.909 270.68 L
594.272 271.124 L
594.635 271.566 L
594.998 272.005 L
595.361 272.443 L
595.724 272.879 L
596.087 273.313 L
596.45 273.745 L
596.813 274.175 L
597.176 274.604 L
597.539 275.03 L
597.902 275.455 L
598.265 275.878 L
598.628 276.299 L
598.991 276.719 L
599.354 277.137 L
599.717 277.553 L
600.08 277.968 L
600.443 278.381 L
600.806 278.792 L
601.169 279.202 L
601.532 279.61 L
601.895 280.017 L
602.258 280.422 L
602.621 280.826 L
602.984 281.228 L
603.347 281.629 L
603.71 282.029 L
604.073 282.427 L
604.436 282.824 L
604.799 283.219 L
605.162 283.614 L
605.525 284.007 L
605.888 284.398 L
606.251 284.789 L
606.614 285.179 L
606.977 285.567 L
607.34 285.954 L
607.703 286.34 L
608.066 286.725 L
608.429 287.109 L
608.792 287.492 L
609.155 287.874 L
609.518 288.254 L
609.881 288.634 L
610.244 289.013 L
610.607 289.391 L
610.97 289.769 L
611.333 290.145 L
611.696 290.52 L
612.059 290.895 L
612.422 291.269 L
612.785 291.642 L
613.148 292.014 L
613.511 292.386 L
613.874 292.757 L
614.237 293.127 L
614.6 293.497 L
614.963 293.866 L
615.326 294.234 L
615.689 294.602 L
616.052 294.97 L
616.415 295.337 L
616.778 295.703 L
617.141 296.069 L
617.504 296.435 L
617.867 296.801 L
618.23 297.167 L
618.593 297.533 L
618.956 297.9 L
619.319 298.487 L
619.682 299.062 L
620.045 299.629 L
620.408 300.19 L
620.771 300.744 L
621.134 301.293 L
621.497 301.838 L
621.86 302.378 L
622.223 302.914 L
622.586 303.447 L
622.949 303.975 L
623.312 304.5 L
623.675 305.022 L
624.038 305.541 L
624.401 306.057 L
624.764 306.569 L
625.127 307.079 L
625.49 307.587 L
625.853 308.092 L
626.216 308.594 L
626.579 309.094 L
626.942 309.591 L
627.305 310.087 L
627.668 310.58 L
628.031 311.071 L
628.394 311.56 L
628.757 312.046 L
629.12 312.531 L
629.483 313.014 L
629.846 313.496 L
630.209 313.975 L
630.572 314.453 L
630.935 314.928 L
631.298 315.403 L
631.661 315.875 L
632.024 316.346 L
632.387 316.815 L
632.75 317.283 L
633.113 317.75 L
633.476 318.215 L
633.839 318.678 L
634.202 319.14 L
634.565 319.601 L
634.928 320.06 L
635.291 320.518 L
635.654 320.975 L
636.017 321.43 L
636.38 321.884 L
636.743 322.337 L
637.106 322.789 L
637.469 323.239 L
637.832 323.689 L
638.195 324.137 L
638.558 324.584 L
638.921 325.03 L
639.284 325.475 L
639.647 325.919 L
640.01 326.362 L
640.373 326.803 L
640.736 327.244 L
641.099 327.684 L
641.462 328.123 L
641.825 328.561 L
642.188 328.997 L
642.551 329.433 L
642.914 329.868 L
643.277 330.302 L
643.64 330.736 L
644.003 331.168 L
644.366 331.599 L
644.729 332.03 L
645.092 332.46 L
645.455 332.888 L
645.818 333.316 L
646.181 333.744 L
646.544 334.17 L
646.907 334.596 L
647.27 335.021 L
647.633 335.445 L
647.996 335.868 L
648.359 336.29 L
648.722 336.473 L
649.085 336.653 L
649.448 336.831 L
649.811 337.006 L
650.174 337.18 L
650.537 337.351 L
650.9 337.521 L
651.263 337.689 L
651.626 337.856 L
651.989 338.021 L
652.352 338.184 L
652.715 338.346 L
653.078 338.506 L
653.441 338.664 L
653.804 338.822 L
654.167 338.977 L
654.53 339.132 L
654.893 339.284 L
655.256 339.436 L
655.619 339.586 L
655.982 339.735 L
656.345 339.882 L
656.708 340.028 L
657.071 340.173 L
657.434 340.316 L
657.797 340.458 L
658.16 340.599 L
658.523 340.738 L
658.886 340.877 L
659.249 341.013 L
659.612 341.149 L
659.975 341.284 L
660.338 341.417 L
660.701 341.549 L
661.064 341.68 L
661.427 341.81 L
661.79 341.938 L
662.153 342.066 L
662.516 342.192 L
662.879 342.317 L
663.242 342.441 L
663.605 342.564 L
663.968 342.685 L
664.331 342.806 L
664.694 342.925 L
665.057 343.044 L
665.42 343.161 L
665.783 343.277 L
666.146 343.392 L
666.509 343.507 L
666.872 343.62 L
667.235 343.732 L
667.598 343.843 L
667.961 343.953 L
668.324 344.062 L
668.687 344.17 L
669.05 344.277 L
669.413 344.383 L
669.776 344.488 L
670.139 344.592 L
670.502 344.695 L
670.865 344.797 L
671.228 344.898 L
671.591 344.998 L
671.954 345.098 L
672.317 345.196 L
672.68 345.294 L
673.043 345.39 L
673.406 345.486 L
673.769 345.581 L
674.132 345.675 L
674.495 345.768 L
674.858 345.86 L
675.221 345.951 L
675.584 346.042 L
675.947 346.131 L
676.31 346.22 L
676.673 346.308 L
677.036 346.395 L
677.399 346.481 L
677.762 346.567 L
678.125 346.651 L
678.488 346.735 L
678.851 346.818 L
679.214 346.901 L
679.577 346.982 L
679.94 347.063 L
680.303 347.143 L
680.666 347.222 L
681.029 347.3 L
681.392 347.378 L
681.755 347.455 L
682.118 347.531 L
682.481 347.607 L
682.844 347.682 L
683.207 347.756 L
683.57 347.829 L
683.933 347.902 L
684.296 347.974 L
684.659 348.045 L
685.022 348.116 L
685.385 348.186 L
685.748 348.255 L
686.111 348.323 L
686.474 348.391 L
686.837 348.459 L
687.2 348.525 L
687.563 348.591 L
687.926 348.656 L
688.289 348.721 L
688.652 348.785 L
689.015 348.849 L
689.378 348.912 L
689.741 348.974 L
690.104 349.035 L
690.467 349.096 L
690.83 349.157 L
691.193 349.217 L
691.556 349.276 L
691.919 349.335 L
692.282 349.393 L
692.645 349.45 L
693.008 349.507 L
693.371 349.564 L
693.734 349.62 L
694.097 349.675 L
694.46 349.73 L
694.823 349.784 L
695.186 349.838 L
695.549 349.891 L
695.912 349.944 L
696.275 349.996 L
696.638 350.048 L
697.001 350.099 L
697.364 350.149 L
697.727 350.2 L
698.09 350.249 L
698.453 350.298 L
698.816 350.347 L
699.179 350.395 L
699.542 350.443 L
699.905 350.49 L
700.268 350.537 L
700.631 350.583 L
700.994 350.629 L
701.357 350.674 L
701.72 350.719 L
702.083 350.764 L
702.446 350.808 L
702.809 350.852 L
703.172 350.895 L
703.535 350.938 L
703.898 350.98 L
704.261 351.022 L
704.624 351.063 L
704.987 351.104 L
705.35 351.145 L
705.713 351.185 L
706.076 351.225 L
706.439 351.265 L
706.802 351.304 L
707.165 351.342 L
707.528 351.381 L
707.891 351.418 L
708.254 351.456 L
708.617 351.493 L
708.98 351.53 L
709.343 351.566 L
709.706 351.602 L
710.069 351.638 L
710.432 351.673 L
710.795 351.708 L
711.158 351.743 L
711.521 351.777 L
711.884 351.811 L
712.247 351.845 L
712.61 351.878 L
712.973 351.911 L
713.336 351.943 L
713.699 351.975 L
714.062 352.007 L
714.425 352.039 L
714.788 352.07 L
715.151 352.101 L
715.514 352.132 L
715.877 352.162 L
716.24 352.192 L
716.603 352.222 L
716.966 352.251 L
717.329 352.28 L
717.692 352.309 L
718.055 352.338 L
718.418 352.366 L
718.781 352.394 L
719.144 352.421 L
719.507 352.449 L
719.87 352.476 L
720.233 352.503 L
720.596 352.529 L
720.959 352.555 L
721.322 352.581 L
721.685 352.607 L
722.048 352.633 L
722.411 352.658 L
722.774 352.683 L
723.137 352.707 L
723.5 352.732 L
723.863 352.756 L
724.226 352.78 L
724.589 352.804 L
724.952 352.827 L
725.315 352.85 L
725.678 352.873 L
726.041 352.896 L
726.404 352.918 L
726.767 352.941 L
727.13 352.963 L
727.493 352.985 L
727.856 353.006 L
728.219 353.027 L
728.582 353.049 L
728.945 353.07 L
729.308 353.09 L
729.671 353.111 L
730.034 353.131 L
730.397 353.151 L
730.76 353.171 L
731.123 353.191 L
731.486 353.21 L
731.849 353.229 L
732.212 353.248 L
732.575 353.267 L
732.938 353.286 L
733.301 353.304 L
733.664 353.323 L
734.027 353.341 L
734.39 353.359 L
734.753 353.376 L
735.116 353.394 L
735.479 353.411 L
735.842 353.428 L
736.205 353.445 L
736.568 353.462 L
736.931 353.479 L
737.294 353.495 L
737.657 353.511 L
738.02 353.528 L
738.383 353.543 L
738.746 353.559 L
739.109 353.575 L
739.472 353.59 L
739.835 353.606 L
740.198 353.621 L
740.561 353.636 L
740.924 353.65 L
741.287 353.665 L
741.65 353.68 L
742.013 353.694 L
742.376 353.708 L
742.739 353.722 L
743.102 353.736 L
743.465 353.75 L
743.828 353.764 L
744.191 353.777 L
744.554 353.79 L
744.917 353.804 L
745.28 353.817 L
745.643 353.83 L
746.006 353.842 L
746.369 353.855 L
746.732 353.867 L
747.095 353.88 L
747.458 353.892 L
747.821 353.904 L
748.184 353.916 L
748.547 353.928 L
748.91 353.94 L
749.273 353.951 L
749.636 353.963 L
749.999 353.974 L
750.362 353.986 L
750.725 353.997 L
751.088 354.008 L
751.451 354.019 L
751.814 354.029 L
752.177 354.04 L
752.54 354.051 L
752.903 354.061 L
753.266 354.071 L
753.629 354.082 L
753.992 354.092 L
754.355 354.102 L
754.718 354.112 L
755.081 354.122 L
755.444 354.131 L
755.807 354.141 L
756.17 354.15 L
756.533 354.16 L
756.896 354.169 L
757.259 354.178 L
757.622 354.187 L
757.985 354.196 L
758.348 354.205 L
758.711 354.214 L
759.074 354.223 L
759.437 354.231 L
759.8 354.24 L
760.163 354.248 L
760.526 354.257 L
760.889 354.265 L
761.252 354.273 L
761.615 354.281 L
761.978 354.289 L
762.341 354.297 L
762.704 354.305 L
763.067 354.313 L
763.43 354.321 L
763.793 354.328 L
764.156 354.336 L
764.519 354.343 L
764.882 354.35 L
765.245 354.358 L
765.608 354.365 L
765.971 354.372 L
766.334 354.379 L
766.697 354.386 L
767.06 354.393 L
767.423 354.4 L
767.786 354.406 L
768.149 354.413 L
768.512 354.42 L
768.875 354.426 L
769.238 354.433 L
769.601 354.439 L
769.964 354.445 L
770.327 354.452 L
770.69 354.458 L
771.053 354.464 L
771.416 354.47 L
771.779 354.476 L
772.142 354.482 L
772.505 354.488 L
772.868 354.494 L
773.231 354.499 L
773.594 354.505 L
773.957 354.511 L
774.32 354.516 L
774.683 354.522 L
775.046 354.527 L
775.409 354.533 L
775.772 354.538 L
776.135 354.543 L
776.498 354.548 L
776.861 354.554 L
777.224 354.559 L
777.587 354.564 L
777.95 354.569 L
778.313 354.574 L
778.676 354.579 L
779.039 354.583 L
779.402 354.588 L
779.765 354.593 L
780.128 354.598 L
780.491 354.602 L
780.854 354.607 L
781.217 354.611 L
781.58 354.616 L
781.943 354.62 L
782.306 354.625 L
782.669 354.629 L
783.032 354.633 L
783.395 354.637 L
783.758 354.642 L
784.121 354.646 L
784.484 354.65 L
784.847 354.654 L
785.21 354.658 L
785.573 354.662 L
785.936 354.666 L
786.299 354.67 L
786.662 354.674 L
787.025 354.678 L
787.388 354.681 L
787.751 354.685 L
788.114 354.689 L
788.477 354.692 L
788.84 354.696 L
789.203 354.7 L
789.566 354.703 L
789.929 354.707 L
790.292 354.71 L
790.655 354.713 L
791.018 354.717 L
791.381 354.72 L
791.744 354.723 L
792.107 354.727 L
792.47 354.73 L
792.833 354.733 L
793.196 354.736 L
793.559 354.74 L
793.922 354.743 L
794.285 354.746 L
794.648 354.749 L
795.011 354.752 L
795.374 354.755 L
795.737 354.758 L
796.1 354.761 L
796.463 354.763 L
796.826 354.766 L
797.189 354.769 L
797.552 354.772 L
797.915 354.775 L
798.278 354.777 L
798.641 354.78 L
799.004 354.783 L
799.367 354.785 L
799.73 354.788 L
800.093 354.791 L
800.456 354.793 L
800.819 354.796 L
801.182 354.798 L
801.545 354.801 L
801.908 354.803 L
802.271 354.805 L
802.634 354.808 L
802.997 354.81 L
803.36 354.813 L
803.723 354.815 L
804.086 354.817 L
804.449 354.819 L
804.812 354.822 L
805.175 354.824 L
805.538 354.826 L
805.901 354.828 L
806.264 354.83 L
806.627 354.832 L
806.99 354.835 L
807.353 354.837 L
807.716 354.839 L
808.079 354.841 L
808.442 354.843 L
808.805 354.845 L
809.168 354.847 L
809.531 354.849 L
809.894 354.851 L
810.257 354.852 L
810.62 354.854 L
810.983 354.856 L
811.346 354.858 L
811.709 354.86 L
812.072 354.862 L
812.435 354.863 L
812.798 354.865 L
813.161 354.867 L
813.524 354.869 L
813.887 354.87 L
814.25 354.872 L
814.613 354.874 L
814.976 354.875 L
815.339 354.877 L
815.702 354.879 L
816.065 354.88 L
816.428 354.882 L
816.791 354.883 L
817.154 354.885 L
817.517 354.886 L
817.88 354.888 L
818.243 354.889 L
818.606 354.891 L
818.969 354.892 L
819.332 354.894 L
819.695 354.895 L
820.058 354.897 L
820.421 354.898 L
820.784 354.899 L
821.147 354.901 L
821.51 354.902 L
821.873 354.904 L
822.236 354.905 L
822.599 354.906 L
822.962 354.907 L
823.325 354.909 L
823.688 354.91 L
824.051 354.911 L
824.414 354.913 L
824.777 354.914 L
825.14 354.915 L
825.503 354.916 L
825.866 354.917 L
826.229 354.919 L
826.592 354.92 L
826.955 354.921 L
827.318 354.922 L
827.681 354.923 L
828.044 354.924 L
828.407 354.925 L
828.77 354.926 L
829.133 354.927 L
829.496 354.929 L
829.859 354.93 L
830.222 354.931 L
830.585 354.932 L
830.948 354.933 L
831.311 354.934 L
831.674 354.935 L
832.037 354.936 L
832.4 354.937 L
832.763 354.938 L
833.126 354.939 L
833.489 354.939 L
833.852 354.94 L
834.215 354.941 L
834.578 354.942 L
834.941 354.943 L
835.304 354.944 L
835.667 354.945 L
836.03 354.946 L
836.393 354.947 L
836.756 354.948 L
837.119 354.948 L
837.482 354.949 L
837.845 354.95 L
838.208 354.951 L
838.571 354.952 L
838.934 354.952 L
839.297 354.953 L
839.66 354.954 L
840.023 354.955 L
840.386 354.956 L
840.749 354.956 L
841.112 354.957 L
841.475 354.958 L
841.838 354.958 L
842.201 354.959 L
842.564 354.96 L
842.927 354.961 L
843.29 354.961 L
843.653 354.962 L
844.016 354.963 L
844.379 354.963 L
844.742 354.964 L
845.105 354.965 L
845.468 354.965 L
845.831 354.966 L
846.194 354.967 L
846.557 354.967 L
846.92 354.968 L
847.283 354.969 L
847.646 354.969 L
848.009 354.97 L
848.372 354.97 L
848.735 354.971 L
849.098 354.972 L
849.461 354.972 L
849.824 354.973 L
850.187 354.973 L
850.55 354.974 L
850.913 354.974 L
851.276 354.975 L
851.639 354.975 L
852.002 354.976 L
852.365 354.977 L
852.728 354.977 L
853.091 354.978 L
853.454 354.978 L
853.817 354.979 L
854.18 354.979 L
854.543 354.98 L
854.906 354.98 L
855.269 354.981 L
855.632 354.981 L
855.995 354.982 L
856.358 354.982 L
856.721 354.983 L
857.084 354.983 L
857.447 354.983 L
857.81 354.984 L
858.173 354.984 L
858.536 354.985 L
858.899 354.985 L
859.262 354.986 L
859.625 354.986 L
859.988 354.987 L
860.351 354.987 L
860.714 354.987 L
861.077 354.988 L
861.44 354.988 L
861.803 354.989 L
862.166 354.989 L
862.529 354.989 L
862.892 354.99 L
863.255 354.99 L
863.618 354.99 L
863.981 354.991 L
864.344 354.991 L
864.707 354.992 L
865.07 354.992 L
865.433 354.992 L
865.796 354.993 L
866.159 354.993 L
866.522 354.993 L
866.885 354.994 L
867.248 354.994 L
867.611 354.994 L
867.974 354.995 L
868.337 354.995 L
868.7 354.995 L
869.063 354.996 L
869.426 354.996 L
869.789 354.996 L
870.152 354.996 L
870.515 354.997 L
870.878 354.997 L
871.241 354.997 L
871.604 354.998 L
871.967 354.998 L
872.33 354.998 L
872.693 354.999 L
873.056 354.999 L
873.419 354.999 L
873.782 355 L
874.145 355 L
874.508 355 L
874.871 355 L
875.234 355.001 L
875.597 355.001 L
875.96 355.001 L
876.323 355.001 L
876.686 355.002 L
877.049 355.002 L
877.412 355.002 L
877.775 355.002 L
878.138 355.003 L
878.501 355.003 L
878.864 355.003 L
879.227 355.003 L
879.59 355.004 L
879.953 355.004 L
880.316 355.004 L
880.679 355.004 L
881.042 355.005 L
881.405 355.005 L
881.768 355.005 L
882.131 355.005 L
882.494 355.005 L
882.857 355.006 L
883.22 355.006 L
883.583 355.006 L
883.946 355.006 L
884.309 355.006 L
884.672 355.007 L
885.035 355.007 L
885.398 355.007 L
885.761 355.007 L
886.124 355.007 L
886.487 355.008 L
886.85 355.008 L
887.213 355.008 L
887.576 355.008 L
887.939 355.008 L
888.302 355.008 L
888.665 355.009 L
889.028 355.009 L
889.391 355.009 L
889.754 355.009 L
890.117 355.009 L
890.48 355.009 L
890.843 355.009 L
891.206 355.01 L
891.569 355.01 L
891.932 355.01 L
892.295 355.01 L
892.658 355.01 L
893.021 355.01 L
893.384 355.011 L
893.747 355.011 L
894.11 355.011 L
894.473 355.011 L
894.836 355.011 L
895.199 355.011 L
895.562 355.011 L
895.925 355.012 L
896.288 355.012 L
896.651 355.012 L
897.014 355.012 L
897.377 355.012 L
897.74 355.012 L
898.103 355.012 L
898.466 355.012 L
898.829 355.013 L
899.192 355.013 L
899.555 355.013 L
899.918 355.013 L
900.281 355.013 L
900.644 355.013 L
901.007 355.013 L
901.37 355.013 L
901.733 355.014 L
902.096 355.014 L
902.459 355.014 L
902.822 355.014 L
903.185 355.014 L
903.548 355.014 L
903.911 355.014 L
904.274 355.014 L
904.637 355.015 L
905 355.015 L
S
GR
GS
[0.75 0 0 0.75 0 0] CT
0 1 0 RC
2 setlinecap
10.0 ML
2 LW
N
542 356 M
542.363 356 L
542.726 356 L
543.089 356 L
543.452 356 L
543.815 356 L
544.178 356 L
544.541 356 L
544.904 356 L
545.267 356 L
545.63 356 L
545.993 356 L
546.356 356 L
546.719 356 L
547.082 356 L
547.445 356 L
547.808 356 L
548.171 356 L
548.534 356 L
548.897 356 L
549.26 356 L
549.623 356 L
549.986 356 L
550.349 356 L
550.712 356 L
551.075 356 L
551.438 356 L
551.801 356 L
552.164 356 L
552.527 356 L
552.89 356 L
553.253 356 L
553.616 356 L
553.979 356 L
554.342 356 L
554.705 356 L
555.068 356 L
555.431 356 L
555.794 356 L
556.157 356 L
556.52 356 L
556.883 356 L
557.246 356 L
557.609 356 L
557.972 356 L
558.335 356 L
558.698 356 L
559.061 356 L
559.424 356 L
559.787 356 L
560.15 356 L
560.513 356 L
560.876 356 L
561.239 356 L
561.602 356 L
561.965 356 L
562.328 356 L
562.691 356 L
563.054 356 L
563.417 356 L
563.78 356 L
564.143 356 L
564.506 356 L
564.869 356 L
565.232 356 L
565.595 356 L
565.958 356 L
566.321 356 L
566.684 356 L
567.047 356 L
567.41 356 L
567.773 356 L
568.136 356 L
568.499 356 L
568.862 356 L
569.225 356 L
569.588 356 L
569.951 356 L
570.314 356 L
570.677 356 L
571.04 356 L
571.403 356 L
571.766 356 L
572.129 356 L
572.492 356 L
572.855 356 L
573.218 356 L
573.581 356 L
573.944 356 L
574.307 356 L
574.67 356 L
575.033 356 L
575.396 356 L
575.759 356 L
576.122 356 L
576.485 356 L
576.848 356 L
577.211 356 L
577.574 356 L
577.937 356 L
578.3 356 L
578.663 356 L
579.026 356 L
579.389 356 L
579.752 356 L
580.115 356 L
580.478 356 L
580.841 356 L
581.204 356 L
581.567 356 L
581.93 356 L
582.293 356 L
582.656 356 L
583.019 356 L
583.382 356 L
583.745 356 L
584.108 356 L
584.471 356 L
584.834 356 L
585.197 356 L
585.56 356 L
585.923 356 L
586.286 356 L
586.649 356 L
587.012 356 L
587.375 356 L
587.738 356 L
588.101 356 L
588.464 356 L
588.827 356 L
589.19 356 L
589.553 356 L
589.916 356 L
590.279 356 L
590.642 356 L
591.005 356 L
591.368 356 L
591.731 356 L
592.094 356 L
592.457 356 L
592.82 356 L
593.183 356 L
593.546 356 L
593.909 356 L
594.272 356 L
594.635 356 L
594.998 356 L
595.361 356 L
595.724 356 L
596.087 356 L
596.45 356 L
596.813 356 L
597.176 356 L
597.539 356 L
597.902 356 L
598.265 356 L
598.628 356 L
598.991 356 L
599.354 356 L
599.717 356 L
600.08 356 L
600.443 356 L
600.806 356 L
601.169 356 L
601.532 356 L
601.895 356 L
602.258 356 L
602.621 356 L
602.984 356 L
603.347 356 L
603.71 356 L
604.073 356 L
604.436 356 L
604.799 356 L
605.162 356 L
605.525 356 L
605.888 356 L
606.251 356 L
606.614 356 L
606.977 356 L
607.34 356 L
607.703 356 L
608.066 356 L
608.429 356 L
608.792 356 L
609.155 356 L
609.518 356 L
609.881 356 L
610.244 356 L
610.607 356 L
610.97 356 L
611.333 356 L
611.696 356 L
612.059 356 L
612.422 356 L
612.785 356 L
613.148 356 L
613.511 356 L
613.874 356 L
614.237 356 L
614.6 356 L
614.963 356 L
615.326 356 L
615.689 356 L
616.052 356 L
616.415 356 L
616.778 356 L
617.141 356 L
617.504 356 L
617.867 356 L
618.23 356 L
618.593 356 L
618.956 356 L
619.319 356 L
619.682 356 L
620.045 356 L
620.408 356 L
620.771 356 L
621.134 356 L
621.497 356 L
621.86 356 L
622.223 356 L
622.586 356 L
622.949 356 L
623.312 356 L
623.675 356 L
624.038 356 L
624.401 356 L
624.764 356 L
625.127 356 L
625.49 356 L
625.853 356 L
626.216 356 L
626.579 356 L
626.942 356 L
627.305 356 L
627.668 356 L
628.031 356 L
628.394 356 L
628.757 356 L
629.12 356 L
629.483 356 L
629.846 356 L
630.209 356 L
630.572 356 L
630.935 356 L
631.298 356 L
631.661 356 L
632.024 356 L
632.387 356 L
632.75 356 L
633.113 356 L
633.476 356 L
633.839 356 L
634.202 356 L
634.565 356 L
634.928 356 L
635.291 356 L
635.654 356 L
636.017 356 L
636.38 356 L
636.743 356 L
637.106 356 L
637.469 356 L
637.832 356 L
638.195 356 L
638.558 356 L
638.921 356 L
639.284 356 L
639.647 356 L
640.01 356 L
640.373 356 L
640.736 356 L
641.099 356 L
641.462 356 L
641.825 356 L
642.188 356 L
642.551 356 L
642.914 356 L
643.277 356 L
643.64 356 L
644.003 356 L
644.366 356 L
644.729 356 L
645.092 356 L
645.455 356 L
645.818 356 L
646.181 356 L
646.544 356 L
646.907 356 L
647.27 356 L
647.633 356 L
647.996 356 L
648.359 356 L
648.722 356 L
649.085 356 L
649.448 356 L
649.811 356 L
650.174 356 L
650.537 356 L
650.9 356 L
651.263 356 L
651.626 356 L
651.989 356 L
652.352 356 L
652.715 356 L
653.078 356 L
653.441 356 L
653.804 356 L
654.167 356 L
654.53 356 L
654.893 356 L
655.256 356 L
655.619 356 L
655.982 356 L
656.345 356 L
656.708 356 L
657.071 356 L
657.434 356 L
657.797 356 L
658.16 356 L
658.523 356 L
658.886 356 L
659.249 356 L
659.612 356 L
659.975 356 L
660.338 356 L
660.701 356 L
661.064 356 L
661.427 356 L
661.79 356 L
662.153 356 L
662.516 356 L
662.879 356 L
663.242 356 L
663.605 356 L
663.968 356 L
664.331 356 L
664.694 356 L
665.057 356 L
665.42 356 L
665.783 356 L
666.146 356 L
666.509 356 L
666.872 356 L
667.235 356 L
667.598 356 L
667.961 356 L
668.324 356 L
668.687 356 L
669.05 356 L
669.413 356 L
669.776 356 L
670.139 356 L
670.502 356 L
670.865 356 L
671.228 356 L
671.591 356 L
671.954 356 L
672.317 356 L
672.68 356 L
673.043 356 L
673.406 356 L
673.769 356 L
674.132 356 L
674.495 356 L
674.858 356 L
675.221 356 L
675.584 356 L
675.947 356 L
676.31 356 L
676.673 356 L
677.036 356 L
677.399 356 L
677.762 356 L
678.125 356 L
678.488 356 L
678.851 356 L
679.214 356 L
679.577 356 L
679.94 356 L
680.303 356 L
680.666 356 L
681.029 356 L
681.392 356 L
681.755 356 L
682.118 356 L
682.481 356 L
682.844 356 L
683.207 356 L
683.57 356 L
683.933 356 L
684.296 356 L
684.659 356 L
685.022 356 L
685.385 356 L
685.748 356 L
686.111 356 L
686.474 356 L
686.837 356 L
687.2 356 L
687.563 356 L
687.926 356 L
688.289 356 L
688.652 356 L
689.015 356 L
689.378 356 L
689.741 356 L
690.104 356 L
690.467 356 L
690.83 356 L
691.193 356 L
691.556 356 L
691.919 356 L
692.282 356 L
692.645 356 L
693.008 356 L
693.371 356 L
693.734 356 L
694.097 356 L
694.46 356 L
694.823 356 L
695.186 356 L
695.549 356 L
695.912 356 L
696.275 356 L
696.638 356 L
697.001 356 L
697.364 356 L
697.727 356 L
698.09 356 L
698.453 356 L
698.816 356 L
699.179 356 L
699.542 356 L
699.905 356 L
700.268 356 L
700.631 356 L
700.994 356 L
701.357 356 L
701.72 356 L
702.083 356 L
702.446 356 L
702.809 356 L
703.172 356 L
703.535 356 L
703.898 356 L
704.261 356 L
704.624 356 L
704.987 356 L
705.35 356 L
705.713 356 L
706.076 356 L
706.439 356 L
706.802 356 L
707.165 356 L
707.528 356 L
707.891 356 L
708.254 356 L
708.617 356 L
708.98 356 L
709.343 356 L
709.706 356 L
710.069 356 L
710.432 356 L
710.795 356 L
711.158 356 L
711.521 356 L
711.884 356 L
712.247 356 L
712.61 356 L
712.973 356 L
713.336 356 L
713.699 356 L
714.062 356 L
714.425 356 L
714.788 356 L
715.151 356 L
715.514 356 L
715.877 356 L
716.24 356 L
716.603 356 L
716.966 356 L
717.329 356 L
717.692 356 L
718.055 356 L
718.418 356 L
718.781 356 L
719.144 356 L
719.507 356 L
719.87 356 L
720.233 356 L
720.596 356 L
720.959 356 L
721.322 356 L
721.685 356 L
722.048 356 L
722.411 356 L
722.774 356 L
723.137 356 L
723.5 356 L
723.863 356 L
724.226 356 L
724.589 356 L
724.952 356 L
725.315 356 L
725.678 356 L
726.041 356 L
726.404 356 L
726.767 356 L
727.13 356 L
727.493 356 L
727.856 356 L
728.219 356 L
728.582 356 L
728.945 356 L
729.308 356 L
729.671 356 L
730.034 356 L
730.397 356 L
730.76 356 L
731.123 356 L
731.486 356 L
731.849 356 L
732.212 356 L
732.575 356 L
732.938 356 L
733.301 356 L
733.664 356 L
734.027 356 L
734.39 356 L
734.753 356 L
735.116 356 L
735.479 356 L
735.842 356 L
736.205 356 L
736.568 356 L
736.931 356 L
737.294 356 L
737.657 356 L
738.02 356 L
738.383 356 L
738.746 356 L
739.109 356 L
739.472 356 L
739.835 356 L
740.198 356 L
740.561 356 L
740.924 356 L
741.287 356 L
741.65 356 L
742.013 356 L
742.376 356 L
742.739 356 L
743.102 356 L
743.465 356 L
743.828 356 L
744.191 356 L
744.554 356 L
744.917 356 L
745.28 356 L
745.643 356 L
746.006 356 L
746.369 356 L
746.732 356 L
747.095 356 L
747.458 356 L
747.821 356 L
748.184 356 L
748.547 356 L
748.91 356 L
749.273 356 L
749.636 356 L
749.999 356 L
750.362 356 L
750.725 356 L
751.088 356 L
751.451 356 L
751.814 356 L
752.177 356 L
752.54 356 L
752.903 356 L
753.266 356 L
753.629 356 L
753.992 356 L
754.355 356 L
754.718 356 L
755.081 356 L
755.444 356 L
755.807 356 L
756.17 356 L
756.533 356 L
756.896 356 L
757.259 356 L
757.622 356 L
757.985 356 L
758.348 356 L
758.711 356 L
759.074 356 L
759.437 356 L
759.8 356 L
760.163 356 L
760.526 356 L
760.889 356 L
761.252 356 L
761.615 356 L
761.978 356 L
762.341 356 L
762.704 356 L
763.067 356 L
763.43 356 L
763.793 356 L
764.156 356 L
764.519 356 L
764.882 356 L
765.245 356 L
765.608 356 L
765.971 356 L
766.334 356 L
766.697 356 L
767.06 356 L
767.423 356 L
767.786 356 L
768.149 356 L
768.512 356 L
768.875 356 L
769.238 356 L
769.601 356 L
769.964 356 L
770.327 356 L
770.69 356 L
771.053 356 L
771.416 356 L
771.779 356 L
772.142 356 L
772.505 356 L
772.868 356 L
773.231 356 L
773.594 356 L
773.957 356 L
774.32 356 L
774.683 356 L
775.046 356 L
775.409 356 L
775.772 356 L
776.135 356 L
776.498 356 L
776.861 356 L
777.224 356 L
777.587 356 L
777.95 356 L
778.313 356 L
778.676 356 L
779.039 356 L
779.402 356 L
779.765 356 L
780.128 356 L
780.491 356 L
780.854 356 L
781.217 356 L
781.58 356 L
781.943 356 L
782.306 356 L
782.669 356 L
783.032 356 L
783.395 356 L
783.758 356 L
784.121 356 L
784.484 356 L
784.847 356 L
785.21 356 L
785.573 356 L
785.936 356 L
786.299 356 L
786.662 356 L
787.025 356 L
787.388 356 L
787.751 356 L
788.114 356 L
788.477 356 L
788.84 356 L
789.203 356 L
789.566 356 L
789.929 356 L
790.292 356 L
790.655 356 L
791.018 356 L
791.381 356 L
791.744 356 L
792.107 356 L
792.47 356 L
792.833 356 L
793.196 356 L
793.559 356 L
793.922 356 L
794.285 356 L
794.648 356 L
795.011 356 L
795.374 356 L
795.737 356 L
796.1 356 L
796.463 356 L
796.826 356 L
797.189 356 L
797.552 356 L
797.915 356 L
798.278 356 L
798.641 356 L
799.004 356 L
799.367 356 L
799.73 356 L
800.093 356 L
800.456 356 L
800.819 356 L
801.182 356 L
801.545 356 L
801.908 356 L
802.271 356 L
802.634 356 L
802.997 356 L
803.36 356 L
803.723 356 L
804.086 356 L
804.449 356 L
804.812 356 L
805.175 356 L
805.538 356 L
805.901 356 L
806.264 356 L
806.627 356 L
806.99 356 L
807.353 356 L
807.716 356 L
808.079 356 L
808.442 356 L
808.805 356 L
809.168 356 L
809.531 356 L
809.894 356 L
810.257 356 L
810.62 356 L
810.983 356 L
811.346 356 L
811.709 356 L
812.072 356 L
812.435 356 L
812.798 356 L
813.161 356 L
813.524 356 L
813.887 356 L
814.25 356 L
814.613 356 L
814.976 356 L
815.339 356 L
815.702 356 L
816.065 356 L
816.428 356 L
816.791 356 L
817.154 356 L
817.517 356 L
817.88 356 L
818.243 356 L
818.606 356 L
818.969 356 L
819.332 356 L
819.695 356 L
820.058 356 L
820.421 356 L
820.784 356 L
821.147 356 L
821.51 356 L
821.873 356 L
822.236 356 L
822.599 356 L
822.962 356 L
823.325 356 L
823.688 356 L
824.051 356 L
824.414 356 L
824.777 356 L
825.14 356 L
825.503 356 L
825.866 356 L
826.229 356 L
826.592 356 L
826.955 356 L
827.318 356 L
827.681 356 L
828.044 356 L
828.407 356 L
828.77 356 L
829.133 356 L
829.496 356 L
829.859 356 L
830.222 356 L
830.585 356 L
830.948 356 L
831.311 356 L
831.674 356 L
832.037 356 L
832.4 356 L
832.763 356 L
833.126 356 L
833.489 356 L
833.852 356 L
834.215 356 L
834.578 356 L
834.941 356 L
835.304 356 L
835.667 356 L
836.03 356 L
836.393 356 L
836.756 356 L
837.119 356 L
837.482 356 L
837.845 356 L
838.208 356 L
838.571 356 L
838.934 356 L
839.297 356 L
839.66 356 L
840.023 356 L
840.386 356 L
840.749 356 L
841.112 356 L
841.475 356 L
841.838 356 L
842.201 356 L
842.564 356 L
842.927 356 L
843.29 356 L
843.653 356 L
844.016 356 L
844.379 356 L
844.742 356 L
845.105 356 L
845.468 356 L
845.831 356 L
846.194 356 L
846.557 356 L
846.92 356 L
847.283 356 L
847.646 356 L
848.009 356 L
848.372 356 L
848.735 356 L
849.098 356 L
849.461 356 L
849.824 356 L
850.187 356 L
850.55 356 L
850.913 356 L
851.276 356 L
851.639 356 L
852.002 356 L
852.365 356 L
852.728 356 L
853.091 356 L
853.454 356 L
853.817 356 L
854.18 356 L
854.543 356 L
854.906 356 L
855.269 356 L
855.632 356 L
855.995 356 L
856.358 356 L
856.721 356 L
857.084 356 L
857.447 356 L
857.81 356 L
858.173 356 L
858.536 356 L
858.899 356 L
859.262 356 L
859.625 356 L
859.988 356 L
860.351 356 L
860.714 356 L
861.077 356 L
861.44 356 L
861.803 356 L
862.166 356 L
862.529 356 L
862.892 356 L
863.255 356 L
863.618 356 L
863.981 356 L
864.344 356 L
864.707 356 L
865.07 356 L
865.433 356 L
865.796 356 L
866.159 356 L
866.522 356 L
866.885 356 L
867.248 356 L
867.611 356 L
867.974 356 L
868.337 356 L
868.7 356 L
869.063 356 L
869.426 356 L
869.789 356 L
870.152 356 L
870.515 356 L
870.878 356 L
871.241 356 L
871.604 356 L
871.967 356 L
872.33 356 L
872.693 356 L
873.056 356 L
873.419 356 L
873.782 356 L
874.145 356 L
874.508 356 L
874.871 356 L
875.234 356 L
875.597 356 L
875.96 356 L
876.323 356 L
876.686 356 L
877.049 356 L
877.412 356 L
877.775 356 L
878.138 356 L
878.501 356 L
878.864 356 L
879.227 356 L
879.59 356 L
879.953 356 L
880.316 356 L
880.679 356 L
881.042 356 L
881.405 356 L
881.768 356 L
882.131 356 L
882.494 356 L
882.857 356 L
883.22 356 L
883.583 356 L
883.946 356 L
884.309 356 L
884.672 356 L
885.035 356 L
885.398 356 L
885.761 356 L
886.124 356 L
886.487 356 L
886.85 356 L
887.213 356 L
887.576 356 L
887.939 356 L
888.302 356 L
888.665 356 L
889.028 356 L
889.391 356 L
889.754 356 L
890.117 356 L
890.48 356 L
890.843 356 L
891.206 356 L
891.569 356 L
891.932 356 L
892.295 356 L
892.658 356 L
893.021 356 L
893.384 356 L
893.747 356 L
894.11 356 L
894.473 356 L
894.836 356 L
895.199 356 L
895.562 356 L
895.925 356 L
896.288 356 L
896.651 356 L
897.014 356 L
897.377 356 L
897.74 356 L
898.103 356 L
898.466 356 L
898.829 356 L
899.192 356 L
899.555 356 L
899.918 356 L
900.281 356 L
900.644 356 L
901.007 356 L
901.37 356 L
901.733 356 L
902.096 356 L
902.459 356 L
902.822 356 L
903.185 356 L
903.548 356 L
903.911 356 L
904.274 356 L
904.637 356 L
905 356 L
S
GR
GS
[0.75 0 0 0.75 0 0] CT
1 0 0 RC
N
632.5 316.5 M
636.5 316.5 L
635.328 313.672 L
cp
f
GR
GS
[0.75 0 0 0.75 0 0] CT
1 0 0 RC
N
632.5 316.5 M
635.328 313.672 L
632.5 312.5 L
cp
f
GR
GS
[0.75 0 0 0.75 0 0] CT
1 0 0 RC
N
632.5 316.5 M
632.5 312.5 L
629.672 313.672 L
cp
f
GR
GS
[0.75 0 0 0.75 0 0] CT
1 0 0 RC
N
632.5 316.5 M
629.672 313.672 L
628.5 316.5 L
cp
f
GR
GS
[0.75 0 0 0.75 0 0] CT
1 0 0 RC
N
632.5 316.5 M
628.5 316.5 L
629.672 319.328 L
cp
f
GR
GS
[0.75 0 0 0.75 0 0] CT
1 0 0 RC
N
632.5 316.5 M
629.672 319.328 L
632.5 320.5 L
cp
f
GR
GS
[0.75 0 0 0.75 0 0] CT
1 0 0 RC
N
632.5 316.5 M
632.5 320.5 L
635.328 319.328 L
cp
f
GR
GS
[0.75 0 0 0.75 0 0] CT
1 0 0 RC
N
632.5 316.5 M
635.328 319.328 L
636.5 316.5 L
cp
f
GR
GS
[0.75 0 0 0.75 0 0] CT
1 0 0 RC
2 setlinecap
10.0 ML
N
636.5 316.5 M
635.736 314.149 L
633.736 312.696 L
631.264 312.696 L
629.264 314.149 L
628.5 316.5 L
629.264 318.851 L
631.264 320.304 L
633.736 320.304 L
635.736 318.851 L
636.5 316.5 L
S
GR
%%Trailer
%%Pages: 1
%%EOF
